<?xml version="1.0" encoding="UTF-8" standalone="no"?>
<svg
   xmlns:dc="http://purl.org/dc/elements/1.1/"
   xmlns:cc="http://creativecommons.org/ns#"
   xmlns:rdf="http://www.w3.org/1999/02/22-rdf-syntax-ns#"
   xmlns:svg="http://www.w3.org/2000/svg"
   xmlns="http://www.w3.org/2000/svg"
   xmlns:sodipodi="http://sodipodi.sourceforge.net/DTD/sodipodi-0.dtd"
   xmlns:inkscape="http://www.inkscape.org/namespaces/inkscape"
   version="1.1"
   id="svg2"
   viewBox="0 0 1920 1080"
   height="1080"
   width="1920"
   inkscape:version="0.91 r13725"
   sodipodi:docname="box0-infra.svg"
   inkscape:export-filename="/home/kuldeep/my-work/box0/pybox0/doc/img/box0-infra.svg.png"
   inkscape:export-xdpi="60"
   inkscape:export-ydpi="60">
  <sodipodi:namedview
     pagecolor="#ffffff"
     bordercolor="#666666"
     borderopacity="1"
     objecttolerance="10"
     gridtolerance="10"
     guidetolerance="10"
     inkscape:pageopacity="0"
     inkscape:pageshadow="2"
     inkscape:window-width="1920"
     inkscape:window-height="1021"
     id="namedview357"
     showgrid="true"
     showguides="false"
     inkscape:zoom="0.3354187"
     inkscape:cx="1211.2202"
     inkscape:cy="228.53619"
     inkscape:window-x="0"
     inkscape:window-y="0"
     inkscape:window-maximized="1"
     inkscape:current-layer="svg2">
    <inkscape:grid
       type="xygrid"
       id="grid5561" />
  </sodipodi:namedview>
  <title
     id="title4959">Box0 Infrastructure</title>
  <defs
     id="defs4">
    <marker
       style="overflow:visible;"
       id="marker44710"
       refX="0.0"
       refY="0.0"
       orient="auto">
      <path
         transform="scale(0.4) rotate(180) translate(10,0)"
         style="fill-rule:evenodd;stroke:#000000;stroke-width:1pt;stroke-opacity:1;fill:#000000;fill-opacity:1"
         d="M 0.0,0.0 L 5.0,-5.0 L -12.5,0.0 L 5.0,5.0 L 0.0,0.0 z "
         id="path44712" />
    </marker>
    <marker
       orient="auto"
       refY="0.0"
       refX="0.0"
       id="marker44286"
       style="overflow:visible">
      <path
         id="path44288"
         d="M 0.0,0.0 L 5.0,-5.0 L -12.5,0.0 L 5.0,5.0 L 0.0,0.0 z "
         style="fill-rule:evenodd;stroke:#000000;stroke-width:1pt;stroke-opacity:1;fill:#000000;fill-opacity:1"
         transform="scale(0.4) translate(10,0)" />
    </marker>
    <marker
       style="overflow:visible;"
       id="marker41838"
       refX="0.0"
       refY="0.0"
       orient="auto">
      <path
         transform="scale(0.4) rotate(180) translate(10,0)"
         style="fill-rule:evenodd;stroke:#000000;stroke-width:1pt;stroke-opacity:1;fill:#000000;fill-opacity:1"
         d="M 0.0,0.0 L 5.0,-5.0 L -12.5,0.0 L 5.0,5.0 L 0.0,0.0 z "
         id="path41840" />
    </marker>
    <marker
       style="overflow:visible"
       id="marker41426"
       refX="0.0"
       refY="0.0"
       orient="auto">
      <path
         transform="scale(0.4) translate(10,0)"
         style="fill-rule:evenodd;stroke:#000000;stroke-width:1pt;stroke-opacity:1;fill:#000000;fill-opacity:1"
         d="M 0.0,0.0 L 5.0,-5.0 L -12.5,0.0 L 5.0,5.0 L 0.0,0.0 z "
         id="path41428" />
    </marker>
    <marker
       orient="auto"
       refY="0.0"
       refX="0.0"
       id="marker34940"
       style="overflow:visible;">
      <path
         id="path34942"
         d="M 0.0,0.0 L 5.0,-5.0 L -12.5,0.0 L 5.0,5.0 L 0.0,0.0 z "
         style="fill-rule:evenodd;stroke:#000000;stroke-width:1pt;stroke-opacity:1;fill:#000000;fill-opacity:1"
         transform="scale(0.4) rotate(180) translate(10,0)" />
    </marker>
    <marker
       orient="auto"
       refY="0.0"
       refX="0.0"
       id="marker34552"
       style="overflow:visible;">
      <path
         id="path34554"
         d="M 0.0,0.0 L 5.0,-5.0 L -12.5,0.0 L 5.0,5.0 L 0.0,0.0 z "
         style="fill-rule:evenodd;stroke:#000000;stroke-width:1pt;stroke-opacity:1;fill:#000000;fill-opacity:1"
         transform="scale(0.4) rotate(180) translate(10,0)" />
    </marker>
    <marker
       orient="auto"
       refY="0.0"
       refX="0.0"
       id="marker34176"
       style="overflow:visible;">
      <path
         id="path34178"
         d="M 0.0,0.0 L 5.0,-5.0 L -12.5,0.0 L 5.0,5.0 L 0.0,0.0 z "
         style="fill-rule:evenodd;stroke:#000000;stroke-width:1pt;stroke-opacity:1;fill:#000000;fill-opacity:1"
         transform="scale(0.4) rotate(180) translate(10,0)" />
    </marker>
    <marker
       orient="auto"
       refY="0.0"
       refX="0.0"
       id="marker33806"
       style="overflow:visible;">
      <path
         id="path33808"
         d="M 0.0,0.0 L 5.0,-5.0 L -12.5,0.0 L 5.0,5.0 L 0.0,0.0 z "
         style="fill-rule:evenodd;stroke:#000000;stroke-width:1pt;stroke-opacity:1;fill:#000000;fill-opacity:1"
         transform="scale(0.4) rotate(180) translate(10,0)" />
    </marker>
    <marker
       orient="auto"
       refY="0.0"
       refX="0.0"
       id="marker33442"
       style="overflow:visible;">
      <path
         id="path33444"
         d="M 0.0,0.0 L 5.0,-5.0 L -12.5,0.0 L 5.0,5.0 L 0.0,0.0 z "
         style="fill-rule:evenodd;stroke:#000000;stroke-width:1pt;stroke-opacity:1;fill:#000000;fill-opacity:1"
         transform="scale(0.4) rotate(180) translate(10,0)" />
    </marker>
    <marker
       orient="auto"
       refY="0.0"
       refX="0.0"
       id="marker33084"
       style="overflow:visible;">
      <path
         id="path33086"
         d="M 0.0,0.0 L 5.0,-5.0 L -12.5,0.0 L 5.0,5.0 L 0.0,0.0 z "
         style="fill-rule:evenodd;stroke:#000000;stroke-width:1pt;stroke-opacity:1;fill:#000000;fill-opacity:1"
         transform="scale(0.4) rotate(180) translate(10,0)" />
    </marker>
    <marker
       orient="auto"
       refY="0.0"
       refX="0.0"
       id="marker32720"
       style="overflow:visible">
      <path
         id="path32722"
         d="M 0.0,0.0 L 5.0,-5.0 L -12.5,0.0 L 5.0,5.0 L 0.0,0.0 z "
         style="fill-rule:evenodd;stroke:#000000;stroke-width:1pt;stroke-opacity:1;fill:#000000;fill-opacity:1"
         transform="scale(0.4) translate(10,0)" />
    </marker>
    <marker
       orient="auto"
       refY="0.0"
       refX="0.0"
       id="marker32374"
       style="overflow:visible">
      <path
         id="path32376"
         d="M 0.0,0.0 L 5.0,-5.0 L -12.5,0.0 L 5.0,5.0 L 0.0,0.0 z "
         style="fill-rule:evenodd;stroke:#000000;stroke-width:1pt;stroke-opacity:1;fill:#000000;fill-opacity:1"
         transform="scale(0.4) translate(10,0)" />
    </marker>
    <marker
       orient="auto"
       refY="0.0"
       refX="0.0"
       id="marker32034"
       style="overflow:visible">
      <path
         id="path32036"
         d="M 0.0,0.0 L 5.0,-5.0 L -12.5,0.0 L 5.0,5.0 L 0.0,0.0 z "
         style="fill-rule:evenodd;stroke:#000000;stroke-width:1pt;stroke-opacity:1;fill:#000000;fill-opacity:1"
         transform="scale(0.4) translate(10,0)" />
    </marker>
    <marker
       orient="auto"
       refY="0.0"
       refX="0.0"
       id="marker31700"
       style="overflow:visible">
      <path
         id="path31702"
         d="M 0.0,0.0 L 5.0,-5.0 L -12.5,0.0 L 5.0,5.0 L 0.0,0.0 z "
         style="fill-rule:evenodd;stroke:#000000;stroke-width:1pt;stroke-opacity:1;fill:#000000;fill-opacity:1"
         transform="scale(0.4) translate(10,0)" />
    </marker>
    <marker
       orient="auto"
       refY="0.0"
       refX="0.0"
       id="marker31372"
       style="overflow:visible">
      <path
         id="path31374"
         d="M 0.0,0.0 L 5.0,-5.0 L -12.5,0.0 L 5.0,5.0 L 0.0,0.0 z "
         style="fill-rule:evenodd;stroke:#000000;stroke-width:1pt;stroke-opacity:1;fill:#000000;fill-opacity:1"
         transform="scale(0.4) translate(10,0)" />
    </marker>
    <marker
       orient="auto"
       refY="0.0"
       refX="0.0"
       id="marker31050"
       style="overflow:visible">
      <path
         id="path31052"
         d="M 0.0,0.0 L 5.0,-5.0 L -12.5,0.0 L 5.0,5.0 L 0.0,0.0 z "
         style="fill-rule:evenodd;stroke:#000000;stroke-width:1pt;stroke-opacity:1;fill:#000000;fill-opacity:1"
         transform="scale(0.4) translate(10,0)" />
    </marker>
    <marker
       style="overflow:visible;"
       id="marker29553"
       refX="0.0"
       refY="0.0"
       orient="auto">
      <path
         transform="scale(0.4) rotate(180) translate(10,0)"
         style="fill-rule:evenodd;stroke:#000000;stroke-width:1pt;stroke-opacity:1;fill:#000000;fill-opacity:1"
         d="M 0.0,0.0 L 5.0,-5.0 L -12.5,0.0 L 5.0,5.0 L 0.0,0.0 z "
         id="path29555" />
    </marker>
    <marker
       style="overflow:visible"
       id="marker29237"
       refX="0.0"
       refY="0.0"
       orient="auto">
      <path
         transform="scale(0.4) translate(10,0)"
         style="fill-rule:evenodd;stroke:#000000;stroke-width:1pt;stroke-opacity:1;fill:#000000;fill-opacity:1"
         d="M 0.0,0.0 L 5.0,-5.0 L -12.5,0.0 L 5.0,5.0 L 0.0,0.0 z "
         id="path29239" />
    </marker>
    <marker
       orient="auto"
       refY="0.0"
       refX="0.0"
       id="marker26427"
       style="overflow:visible;">
      <path
         id="path26429"
         d="M 0.0,0.0 L 5.0,-5.0 L -12.5,0.0 L 5.0,5.0 L 0.0,0.0 z "
         style="fill-rule:evenodd;stroke:#000000;stroke-width:1pt;stroke-opacity:1;fill:#000000;fill-opacity:1"
         transform="scale(0.4) rotate(180) translate(10,0)" />
    </marker>
    <marker
       orient="auto"
       refY="0.0"
       refX="0.0"
       id="marker26135"
       style="overflow:visible">
      <path
         id="path26137"
         d="M 0.0,0.0 L 5.0,-5.0 L -12.5,0.0 L 5.0,5.0 L 0.0,0.0 z "
         style="fill-rule:evenodd;stroke:#000000;stroke-width:1pt;stroke-opacity:1;fill:#000000;fill-opacity:1"
         transform="scale(0.4) translate(10,0)" />
    </marker>
    <marker
       orient="auto"
       refY="0.0"
       refX="0.0"
       id="marker25823"
       style="overflow:visible;">
      <path
         id="path25825"
         d="M 0.0,0.0 L 5.0,-5.0 L -12.5,0.0 L 5.0,5.0 L 0.0,0.0 z "
         style="fill-rule:evenodd;stroke:#000000;stroke-width:1pt;stroke-opacity:1;fill:#000000;fill-opacity:1"
         transform="scale(0.4) rotate(180) translate(10,0)" />
    </marker>
    <marker
       style="overflow:visible;"
       id="marker24167"
       refX="0.0"
       refY="0.0"
       orient="auto">
      <path
         transform="scale(0.4) rotate(180) translate(10,0)"
         style="fill-rule:evenodd;stroke:#000000;stroke-width:1pt;stroke-opacity:1;fill:#000000;fill-opacity:1"
         d="M 0.0,0.0 L 5.0,-5.0 L -12.5,0.0 L 5.0,5.0 L 0.0,0.0 z "
         id="path24169" />
    </marker>
    <marker
       style="overflow:visible"
       id="marker19457"
       refX="0.0"
       refY="0.0"
       orient="auto">
      <path
         transform="scale(0.4) translate(10,0)"
         style="fill-rule:evenodd;stroke:#000000;stroke-width:1pt;stroke-opacity:1;fill:#000000;fill-opacity:1"
         d="M 0.0,0.0 L 5.0,-5.0 L -12.5,0.0 L 5.0,5.0 L 0.0,0.0 z "
         id="path19459" />
    </marker>
    <marker
       style="overflow:visible;"
       id="marker19189"
       refX="0.0"
       refY="0.0"
       orient="auto">
      <path
         transform="scale(0.4) rotate(180) translate(10,0)"
         style="fill-rule:evenodd;stroke:#000000;stroke-width:1pt;stroke-opacity:1;fill:#000000;fill-opacity:1"
         d="M 0.0,0.0 L 5.0,-5.0 L -12.5,0.0 L 5.0,5.0 L 0.0,0.0 z "
         id="path19191" />
    </marker>
    <marker
       orient="auto"
       refY="0.0"
       refX="0.0"
       id="marker18867"
       style="overflow:visible">
      <path
         id="path18869"
         d="M 0.0,0.0 L 5.0,-5.0 L -12.5,0.0 L 5.0,5.0 L 0.0,0.0 z "
         style="fill-rule:evenodd;stroke:#000000;stroke-width:1pt;stroke-opacity:1;fill:#000000;fill-opacity:1"
         transform="scale(0.4) translate(10,0)" />
    </marker>
    <marker
       orient="auto"
       refY="0.0"
       refX="0.0"
       id="marker18611"
       style="overflow:visible">
      <path
         id="path18613"
         d="M 0.0,0.0 L 5.0,-5.0 L -12.5,0.0 L 5.0,5.0 L 0.0,0.0 z "
         style="fill-rule:evenodd;stroke:#000000;stroke-width:1pt;stroke-opacity:1;fill:#000000;fill-opacity:1"
         transform="scale(0.4) translate(10,0)" />
    </marker>
    <marker
       orient="auto"
       refY="0.0"
       refX="0.0"
       id="marker18325"
       style="overflow:visible">
      <path
         id="path18327"
         d="M 0.0,0.0 L 5.0,-5.0 L -12.5,0.0 L 5.0,5.0 L 0.0,0.0 z "
         style="fill-rule:evenodd;stroke:#000000;stroke-width:1pt;stroke-opacity:1;fill:#000000;fill-opacity:1"
         transform="scale(0.4) translate(10,0)" />
    </marker>
    <marker
       style="overflow:visible"
       id="marker16101"
       refX="0.0"
       refY="0.0"
       orient="auto">
      <path
         transform="scale(0.4) translate(10,0)"
         style="fill-rule:evenodd;stroke:#000000;stroke-width:1pt;stroke-opacity:1;fill:#000000;fill-opacity:1"
         d="M 0.0,0.0 L 5.0,-5.0 L -12.5,0.0 L 5.0,5.0 L 0.0,0.0 z "
         id="path16103" />
    </marker>
    <marker
       style="overflow:visible"
       id="marker15875"
       refX="0.0"
       refY="0.0"
       orient="auto">
      <path
         transform="scale(0.4) translate(10,0)"
         style="fill-rule:evenodd;stroke:#000000;stroke-width:1pt;stroke-opacity:1;fill:#000000;fill-opacity:1"
         d="M 0.0,0.0 L 5.0,-5.0 L -12.5,0.0 L 5.0,5.0 L 0.0,0.0 z "
         id="path15877" />
    </marker>
    <marker
       style="overflow:visible"
       id="marker15655"
       refX="0.0"
       refY="0.0"
       orient="auto">
      <path
         transform="scale(0.4) translate(10,0)"
         style="fill-rule:evenodd;stroke:#000000;stroke-width:1pt;stroke-opacity:1;fill:#000000;fill-opacity:1"
         d="M 0.0,0.0 L 5.0,-5.0 L -12.5,0.0 L 5.0,5.0 L 0.0,0.0 z "
         id="path15657" />
    </marker>
    <marker
       style="overflow:visible"
       id="marker15441"
       refX="0.0"
       refY="0.0"
       orient="auto">
      <path
         transform="scale(0.4) translate(10,0)"
         style="fill-rule:evenodd;stroke:#000000;stroke-width:1pt;stroke-opacity:1;fill:#000000;fill-opacity:1"
         d="M 0.0,0.0 L 5.0,-5.0 L -12.5,0.0 L 5.0,5.0 L 0.0,0.0 z "
         id="path15443" />
    </marker>
    <marker
       style="overflow:visible"
       id="marker15233"
       refX="0.0"
       refY="0.0"
       orient="auto">
      <path
         transform="scale(0.4) translate(10,0)"
         style="fill-rule:evenodd;stroke:#000000;stroke-width:1pt;stroke-opacity:1;fill:#000000;fill-opacity:1"
         d="M 0.0,0.0 L 5.0,-5.0 L -12.5,0.0 L 5.0,5.0 L 0.0,0.0 z "
         id="path15235" />
    </marker>
    <marker
       orient="auto"
       refY="0.0"
       refX="0.0"
       id="marker15013"
       style="overflow:visible;">
      <path
         id="path15015"
         d="M 0.0,0.0 L 5.0,-5.0 L -12.5,0.0 L 5.0,5.0 L 0.0,0.0 z "
         style="fill-rule:evenodd;stroke:#000000;stroke-width:1pt;stroke-opacity:1;fill:#000000;fill-opacity:1"
         transform="scale(0.4) rotate(180) translate(10,0)" />
    </marker>
    <marker
       orient="auto"
       refY="0.0"
       refX="0.0"
       id="marker14817"
       style="overflow:visible;">
      <path
         id="path14819"
         d="M 0.0,0.0 L 5.0,-5.0 L -12.5,0.0 L 5.0,5.0 L 0.0,0.0 z "
         style="fill-rule:evenodd;stroke:#000000;stroke-width:1pt;stroke-opacity:1;fill:#000000;fill-opacity:1"
         transform="scale(0.4) rotate(180) translate(10,0)" />
    </marker>
    <marker
       orient="auto"
       refY="0.0"
       refX="0.0"
       id="marker14627"
       style="overflow:visible;">
      <path
         id="path14629"
         d="M 0.0,0.0 L 5.0,-5.0 L -12.5,0.0 L 5.0,5.0 L 0.0,0.0 z "
         style="fill-rule:evenodd;stroke:#000000;stroke-width:1pt;stroke-opacity:1;fill:#000000;fill-opacity:1"
         transform="scale(0.4) rotate(180) translate(10,0)" />
    </marker>
    <marker
       orient="auto"
       refY="0.0"
       refX="0.0"
       id="marker14443"
       style="overflow:visible;">
      <path
         id="path14445"
         d="M 0.0,0.0 L 5.0,-5.0 L -12.5,0.0 L 5.0,5.0 L 0.0,0.0 z "
         style="fill-rule:evenodd;stroke:#000000;stroke-width:1pt;stroke-opacity:1;fill:#000000;fill-opacity:1"
         transform="scale(0.4) rotate(180) translate(10,0)" />
    </marker>
    <marker
       orient="auto"
       refY="0.0"
       refX="0.0"
       id="marker7009"
       style="overflow:visible">
      <path
         id="path7011"
         d="M 0.0,0.0 L 5.0,-5.0 L -12.5,0.0 L 5.0,5.0 L 0.0,0.0 z "
         style="fill-rule:evenodd;stroke:#000000;stroke-width:1pt;stroke-opacity:1;fill:#000000;fill-opacity:1"
         transform="scale(0.4) translate(10,0)" />
    </marker>
    <marker
       style="overflow:visible;"
       id="Arrow1Send"
       refX="0.0"
       refY="0.0"
       orient="auto">
      <path
         transform="scale(0.2) rotate(180) translate(6,0)"
         style="fill-rule:evenodd;stroke:#000000;stroke-width:1pt;stroke-opacity:1;fill:#000000;fill-opacity:1"
         d="M 0.0,0.0 L 5.0,-5.0 L -12.5,0.0 L 5.0,5.0 L 0.0,0.0 z "
         id="path4175" />
    </marker>
    <marker
       style="overflow:visible;"
       id="marker4908"
       refX="0.0"
       refY="0.0"
       orient="auto">
      <path
         transform="scale(0.4) rotate(180) translate(10,0)"
         style="fill-rule:evenodd;stroke:#000000;stroke-width:1pt;stroke-opacity:1;fill:#000000;fill-opacity:1"
         d="M 0.0,0.0 L 5.0,-5.0 L -12.5,0.0 L 5.0,5.0 L 0.0,0.0 z "
         id="path4910" />
    </marker>
    <marker
       orient="auto"
       refY="0.0"
       refX="0.0"
       id="marker4862"
       style="overflow:visible;">
      <path
         id="path4864"
         d="M 0.0,0.0 L 5.0,-5.0 L -12.5,0.0 L 5.0,5.0 L 0.0,0.0 z "
         style="fill-rule:evenodd;stroke:#000000;stroke-width:1pt;stroke-opacity:1;fill:#000000;fill-opacity:1"
         transform="scale(0.4) rotate(180) translate(10,0)" />
    </marker>
    <marker
       orient="auto"
       refY="0.0"
       refX="0.0"
       id="marker4816"
       style="overflow:visible;">
      <path
         id="path4818"
         d="M 0.0,0.0 L 5.0,-5.0 L -12.5,0.0 L 5.0,5.0 L 0.0,0.0 z "
         style="fill-rule:evenodd;stroke:#000000;stroke-width:1pt;stroke-opacity:1;fill:#000000;fill-opacity:1"
         transform="scale(0.4) rotate(180) translate(10,0)" />
    </marker>
    <marker
       style="overflow:visible;"
       id="Arrow1Mend"
       refX="0.0"
       refY="0.0"
       orient="auto">
      <path
         transform="scale(0.4) rotate(180) translate(10,0)"
         style="fill-rule:evenodd;stroke:#000000;stroke-width:1pt;stroke-opacity:1;fill:#000000;fill-opacity:1"
         d="M 0.0,0.0 L 5.0,-5.0 L -12.5,0.0 L 5.0,5.0 L 0.0,0.0 z "
         id="path4169" />
    </marker>
    <marker
       style="overflow:visible"
       id="Arrow1Mstart"
       refX="0.0"
       refY="0.0"
       orient="auto">
      <path
         transform="scale(0.4) translate(10,0)"
         style="fill-rule:evenodd;stroke:#000000;stroke-width:1pt;stroke-opacity:1;fill:#000000;fill-opacity:1"
         d="M 0.0,0.0 L 5.0,-5.0 L -12.5,0.0 L 5.0,5.0 L 0.0,0.0 z "
         id="path4166" />
    </marker>
    <marker
       style="overflow:visible"
       id="Arrow1Lstart"
       refX="0.0"
       refY="0.0"
       orient="auto">
      <path
         transform="scale(0.8) translate(12.5,0)"
         style="fill-rule:evenodd;stroke:#000000;stroke-width:1pt;stroke-opacity:1;fill:#000000;fill-opacity:1"
         d="M 0.0,0.0 L 5.0,-5.0 L -12.5,0.0 L 5.0,5.0 L 0.0,0.0 z "
         id="path4160" />
    </marker>
    <marker
       style="overflow:visible"
       id="marker4908-7"
       refX="0"
       refY="0"
       orient="auto">
      <path
         transform="matrix(-0.4,0,0,-0.4,-4,0)"
         style="fill:#000000;fill-opacity:1;fill-rule:evenodd;stroke:#000000;stroke-width:1pt;stroke-opacity:1"
         d="M 0,0 5,-5 -12.5,0 5,5 0,0 Z"
         id="path4910-5" />
    </marker>
    <marker
       style="overflow:visible"
       id="marker4908-7-0"
       refX="0"
       refY="0"
       orient="auto">
      <path
         transform="matrix(-0.4,0,0,-0.4,-4,0)"
         style="fill:#000000;fill-opacity:1;fill-rule:evenodd;stroke:#000000;stroke-width:1pt;stroke-opacity:1"
         d="M 0,0 5,-5 -12.5,0 5,5 0,0 Z"
         id="path4910-5-6" />
    </marker>
    <marker
       style="overflow:visible"
       id="marker4908-7-0-2"
       refX="0"
       refY="0"
       orient="auto">
      <path
         transform="matrix(-0.4,0,0,-0.4,-4,0)"
         style="fill:#000000;fill-opacity:1;fill-rule:evenodd;stroke:#000000;stroke-width:1pt;stroke-opacity:1"
         d="M 0,0 5,-5 -12.5,0 5,5 0,0 Z"
         id="path4910-5-6-0" />
    </marker>
    <marker
       style="overflow:visible"
       id="marker4908-7-0-2-6"
       refX="0"
       refY="0"
       orient="auto">
      <path
         transform="matrix(-0.4,0,0,-0.4,-4,0)"
         style="fill:#000000;fill-opacity:1;fill-rule:evenodd;stroke:#000000;stroke-width:1pt;stroke-opacity:1"
         d="M 0,0 5,-5 -12.5,0 5,5 0,0 Z"
         id="path4910-5-6-0-1" />
    </marker>
    <marker
       style="overflow:visible"
       id="marker4908-7-0-2-0"
       refX="0"
       refY="0"
       orient="auto">
      <path
         transform="matrix(-0.4,0,0,-0.4,-4,0)"
         style="fill:#000000;fill-opacity:1;fill-rule:evenodd;stroke:#000000;stroke-width:1pt;stroke-opacity:1"
         d="M 0,0 5,-5 -12.5,0 5,5 0,0 Z"
         id="path4910-5-6-0-3" />
    </marker>
    <marker
       orient="auto"
       refY="0"
       refX="0"
       id="marker7009-3"
       style="overflow:visible">
      <path
         id="path7011-2"
         d="M 0,0 5,-5 -12.5,0 5,5 0,0 Z"
         style="fill:#000000;fill-opacity:1;fill-rule:evenodd;stroke:#000000;stroke-width:1pt;stroke-opacity:1"
         transform="matrix(0.4,0,0,0.4,4,0)" />
    </marker>
    <marker
       style="overflow:visible"
       id="marker4908-7-0-2-6-0"
       refX="0"
       refY="0"
       orient="auto">
      <path
         transform="matrix(-0.4,0,0,-0.4,-4,0)"
         style="fill:#000000;fill-opacity:1;fill-rule:evenodd;stroke:#000000;stroke-width:1pt;stroke-opacity:1"
         d="M 0,0 5,-5 -12.5,0 5,5 0,0 Z"
         id="path4910-5-6-0-1-6" />
    </marker>
    <marker
       orient="auto"
       refY="0"
       refX="0"
       id="marker7009-3-4"
       style="overflow:visible">
      <path
         id="path7011-2-7"
         d="M 0,0 5,-5 -12.5,0 5,5 0,0 Z"
         style="fill:#000000;fill-opacity:1;fill-rule:evenodd;stroke:#000000;stroke-width:1pt;stroke-opacity:1"
         transform="matrix(0.4,0,0,0.4,4,0)" />
    </marker>
    <marker
       style="overflow:visible"
       id="marker4908-7-0-2-6-0-6"
       refX="0"
       refY="0"
       orient="auto">
      <path
         transform="matrix(-0.4,0,0,-0.4,-4,0)"
         style="fill:#000000;fill-opacity:1;fill-rule:evenodd;stroke:#000000;stroke-width:1pt;stroke-opacity:1"
         d="M 0,0 5,-5 -12.5,0 5,5 0,0 Z"
         id="path4910-5-6-0-1-6-5" />
    </marker>
    <marker
       orient="auto"
       refY="0"
       refX="0"
       id="marker7009-3-2"
       style="overflow:visible">
      <path
         id="path7011-2-5"
         d="M 0,0 5,-5 -12.5,0 5,5 0,0 Z"
         style="fill:#000000;fill-opacity:1;fill-rule:evenodd;stroke:#000000;stroke-width:1pt;stroke-opacity:1"
         transform="matrix(0.4,0,0,0.4,4,0)" />
    </marker>
    <marker
       style="overflow:visible"
       id="marker4908-7-0-2-6-0-4"
       refX="0"
       refY="0"
       orient="auto">
      <path
         transform="matrix(-0.4,0,0,-0.4,-4,0)"
         style="fill:#000000;fill-opacity:1;fill-rule:evenodd;stroke:#000000;stroke-width:1pt;stroke-opacity:1"
         d="M 0,0 5,-5 -12.5,0 5,5 0,0 Z"
         id="path4910-5-6-0-1-6-7" />
    </marker>
    <marker
       orient="auto"
       refY="0"
       refX="0"
       id="marker7009-3-2-1"
       style="overflow:visible">
      <path
         id="path7011-2-5-4"
         d="M 0,0 5,-5 -12.5,0 5,5 0,0 Z"
         style="fill:#000000;fill-opacity:1;fill-rule:evenodd;stroke:#000000;stroke-width:1pt;stroke-opacity:1"
         transform="matrix(0.4,0,0,0.4,4,0)" />
    </marker>
    <marker
       style="overflow:visible"
       id="marker4908-7-0-2-6-0-4-9"
       refX="0"
       refY="0"
       orient="auto">
      <path
         transform="matrix(-0.4,0,0,-0.4,-4,0)"
         style="fill:#000000;fill-opacity:1;fill-rule:evenodd;stroke:#000000;stroke-width:1pt;stroke-opacity:1"
         d="M 0,0 5,-5 -12.5,0 5,5 0,0 Z"
         id="path4910-5-6-0-1-6-7-2" />
    </marker>
    <marker
       orient="auto"
       refY="0"
       refX="0"
       id="marker7009-3-2-1-6"
       style="overflow:visible">
      <path
         id="path7011-2-5-4-8"
         d="M 0,0 5,-5 -12.5,0 5,5 0,0 Z"
         style="fill:#000000;fill-opacity:1;fill-rule:evenodd;stroke:#000000;stroke-width:1pt;stroke-opacity:1"
         transform="matrix(0.4,0,0,0.4,4,0)" />
    </marker>
    <marker
       style="overflow:visible"
       id="marker4908-7-0-2-6-0-4-9-9"
       refX="0"
       refY="0"
       orient="auto">
      <path
         transform="matrix(-0.4,0,0,-0.4,-4,0)"
         style="fill:#000000;fill-opacity:1;fill-rule:evenodd;stroke:#000000;stroke-width:1pt;stroke-opacity:1"
         d="M 0,0 5,-5 -12.5,0 5,5 0,0 Z"
         id="path4910-5-6-0-1-6-7-2-2" />
    </marker>
    <marker
       style="overflow:visible"
       id="marker4908-7-0-2-0-6"
       refX="0"
       refY="0"
       orient="auto">
      <path
         transform="matrix(-0.4,0,0,-0.4,-4,0)"
         style="fill:#000000;fill-opacity:1;fill-rule:evenodd;stroke:#000000;stroke-width:1pt;stroke-opacity:1"
         d="M 0,0 5,-5 -12.5,0 5,5 0,0 Z"
         id="path4910-5-6-0-3-4" />
    </marker>
    <marker
       style="overflow:visible"
       id="marker4908-7-0-2-0-6-5"
       refX="0"
       refY="0"
       orient="auto">
      <path
         transform="matrix(-0.4,0,0,-0.4,-4,0)"
         style="fill:#000000;fill-opacity:1;fill-rule:evenodd;stroke:#000000;stroke-width:1pt;stroke-opacity:1"
         d="M 0,0 5,-5 -12.5,0 5,5 0,0 Z"
         id="path4910-5-6-0-3-4-0" />
    </marker>
    <marker
       style="overflow:visible"
       id="marker4908-7-0-2-0-6-5-8"
       refX="0"
       refY="0"
       orient="auto">
      <path
         transform="matrix(-0.4,0,0,-0.4,-4,0)"
         style="fill:#000000;fill-opacity:1;fill-rule:evenodd;stroke:#000000;stroke-width:1pt;stroke-opacity:1"
         d="M 0,0 5,-5 -12.5,0 5,5 0,0 Z"
         id="path4910-5-6-0-3-4-0-7" />
    </marker>
    <marker
       style="overflow:visible"
       id="marker4908-7-0-2-0-6-5-8-7"
       refX="0"
       refY="0"
       orient="auto">
      <path
         transform="matrix(-0.4,0,0,-0.4,-4,0)"
         style="fill:#000000;fill-opacity:1;fill-rule:evenodd;stroke:#000000;stroke-width:1pt;stroke-opacity:1"
         d="M 0,0 5,-5 -12.5,0 5,5 0,0 Z"
         id="path4910-5-6-0-3-4-0-7-2" />
    </marker>
    <marker
       style="overflow:visible"
       id="Arrow1Mstart-9"
       refX="0"
       refY="0"
       orient="auto">
      <path
         transform="matrix(0.4,0,0,0.4,4,0)"
         style="fill:#000000;fill-opacity:1;fill-rule:evenodd;stroke:#000000;stroke-width:1pt;stroke-opacity:1"
         d="M 0,0 5,-5 -12.5,0 5,5 0,0 Z"
         id="path4166-4" />
    </marker>
    <marker
       style="overflow:visible"
       id="Arrow1Mend-9"
       refX="0"
       refY="0"
       orient="auto">
      <path
         transform="matrix(-0.4,0,0,-0.4,-4,0)"
         style="fill:#000000;fill-opacity:1;fill-rule:evenodd;stroke:#000000;stroke-width:1pt;stroke-opacity:1"
         d="M 0,0 5,-5 -12.5,0 5,5 0,0 Z"
         id="path4169-0" />
    </marker>
    <marker
       style="overflow:visible"
       id="marker29237-2"
       refX="0"
       refY="0"
       orient="auto">
      <path
         transform="matrix(0.4,0,0,0.4,4,0)"
         style="fill:#000000;fill-opacity:1;fill-rule:evenodd;stroke:#000000;stroke-width:1pt;stroke-opacity:1"
         d="M 0,0 5,-5 -12.5,0 5,5 0,0 Z"
         id="path29239-1" />
    </marker>
    <marker
       style="overflow:visible"
       id="marker29553-7"
       refX="0"
       refY="0"
       orient="auto">
      <path
         transform="matrix(-0.4,0,0,-0.4,-4,0)"
         style="fill:#000000;fill-opacity:1;fill-rule:evenodd;stroke:#000000;stroke-width:1pt;stroke-opacity:1"
         d="M 0,0 5,-5 -12.5,0 5,5 0,0 Z"
         id="path29555-8" />
    </marker>
    <marker
       orient="auto"
       refY="0"
       refX="0"
       id="marker44286-3"
       style="overflow:visible">
      <path
         id="path44288-8"
         d="M 0,0 5,-5 -12.5,0 5,5 0,0 Z"
         style="fill:#000000;fill-opacity:1;fill-rule:evenodd;stroke:#000000;stroke-width:1pt;stroke-opacity:1"
         transform="matrix(0.4,0,0,0.4,4,0)" />
    </marker>
    <marker
       style="overflow:visible"
       id="marker44710-6"
       refX="0"
       refY="0"
       orient="auto">
      <path
         transform="matrix(-0.4,0,0,-0.4,-4,0)"
         style="fill:#000000;fill-opacity:1;fill-rule:evenodd;stroke:#000000;stroke-width:1pt;stroke-opacity:1"
         d="M 0,0 5,-5 -12.5,0 5,5 0,0 Z"
         id="path44712-0" />
    </marker>
    <marker
       orient="auto"
       refY="0"
       refX="0"
       id="marker44286-3-8"
       style="overflow:visible">
      <path
         id="path44288-8-8"
         d="M 0,0 5,-5 -12.5,0 5,5 0,0 Z"
         style="fill:#000000;fill-opacity:1;fill-rule:evenodd;stroke:#000000;stroke-width:1pt;stroke-opacity:1"
         transform="matrix(0.4,0,0,0.4,4,0)" />
    </marker>
    <marker
       style="overflow:visible"
       id="marker44710-6-8"
       refX="0"
       refY="0"
       orient="auto">
      <path
         transform="matrix(-0.4,0,0,-0.4,-4,0)"
         style="fill:#000000;fill-opacity:1;fill-rule:evenodd;stroke:#000000;stroke-width:1pt;stroke-opacity:1"
         d="M 0,0 5,-5 -12.5,0 5,5 0,0 Z"
         id="path44712-0-9" />
    </marker>
    <marker
       orient="auto"
       refY="0"
       refX="0"
       id="marker44286-3-8-7"
       style="overflow:visible">
      <path
         id="path44288-8-8-6"
         d="M 0,0 5,-5 -12.5,0 5,5 0,0 Z"
         style="fill:#000000;fill-opacity:1;fill-rule:evenodd;stroke:#000000;stroke-width:1pt;stroke-opacity:1"
         transform="matrix(0.4,0,0,0.4,4,0)" />
    </marker>
    <marker
       style="overflow:visible"
       id="marker44710-6-8-4"
       refX="0"
       refY="0"
       orient="auto">
      <path
         transform="matrix(-0.4,0,0,-0.4,-4,0)"
         style="fill:#000000;fill-opacity:1;fill-rule:evenodd;stroke:#000000;stroke-width:1pt;stroke-opacity:1"
         d="M 0,0 5,-5 -12.5,0 5,5 0,0 Z"
         id="path44712-0-9-3" />
    </marker>
    <clipPath
       id="clipPath49830"
       clipPathUnits="userSpaceOnUse">
      <rect
         style="opacity:1;fill:#ffffff;fill-opacity:1;fill-rule:nonzero;stroke:none;stroke-width:1.5;stroke-linecap:round;stroke-linejoin:round;stroke-miterlimit:4;stroke-dasharray:none;stroke-dashoffset:0;stroke-opacity:1"
         id="rect49832"
         width="152.24255"
         height="69.974365"
         x="1705.8442"
         y="877.29163" />
    </clipPath>
    <mask
       id="mask49836"
       maskUnits="userSpaceOnUse">
      <rect
         y="877.85358"
         x="1710.771"
         height="56.397945"
         width="152.97945"
         id="rect49838"
         style="opacity:1;fill:#ffffff;fill-opacity:1;fill-rule:nonzero;stroke:none;stroke-width:2.5;stroke-linecap:round;stroke-linejoin:round;stroke-miterlimit:4;stroke-dasharray:none;stroke-dashoffset:0;stroke-opacity:0.61960784" />
    </mask>
  </defs>
  <metadata
     id="metadata7">
    <rdf:RDF>
      <cc:Work
         rdf:about="">
        <dc:format>image/svg+xml</dc:format>
        <dc:type
           rdf:resource="http://purl.org/dc/dcmitype/StillImage" />
        <dc:title>Box0 Infrastructure</dc:title>
        <cc:license
           rdf:resource="http://creativecommons.org/licenses/by-sa/3.0/" />
        <dc:creator>
          <cc:Agent>
            <dc:title>Kuldeep Singh Dhaka</dc:title>
          </cc:Agent>
        </dc:creator>
      </cc:Work>
      <cc:License
         rdf:about="http://creativecommons.org/licenses/by-sa/3.0/">
        <cc:permits
           rdf:resource="http://creativecommons.org/ns#Reproduction" />
        <cc:permits
           rdf:resource="http://creativecommons.org/ns#Distribution" />
        <cc:requires
           rdf:resource="http://creativecommons.org/ns#Notice" />
        <cc:requires
           rdf:resource="http://creativecommons.org/ns#Attribution" />
        <cc:permits
           rdf:resource="http://creativecommons.org/ns#DerivativeWorks" />
        <cc:requires
           rdf:resource="http://creativecommons.org/ns#ShareAlike" />
      </cc:License>
    </rdf:RDF>
  </metadata>
  <rect
     style="opacity:1;fill:#f7fad7;fill-opacity:0.6204986;fill-rule:nonzero;stroke:#f7fad7;stroke-width:3;stroke-linecap:round;stroke-linejoin:round;stroke-miterlimit:4;stroke-dasharray:none;stroke-dashoffset:0;stroke-opacity:0.61960784"
     id="rect4146-1"
     width="696.38214"
     height="954.58136"
     x="316.02591"
     y="69.713043" />
  <rect
     style="opacity:0.42900002;fill:#dddddd;fill-opacity:0.89655175;fill-rule:nonzero;stroke:none;stroke-width:1.89474428;stroke-linecap:round;stroke-linejoin:round;stroke-miterlimit:4;stroke-dasharray:none;stroke-dashoffset:0;stroke-opacity:1"
     id="rect29153"
     width="628.43939"
     height="176.90396"
     x="354.13574"
     y="84.417984" />
  <rect
     style="opacity:1;fill:#d7faed;fill-opacity:0.6204986;fill-rule:nonzero;stroke:none;stroke-width:3;stroke-linecap:round;stroke-linejoin:round;stroke-miterlimit:4;stroke-dasharray:3, 18;stroke-dashoffset:0;stroke-opacity:1"
     id="rect4146-1-6"
     width="224.9796"
     height="954.58136"
     x="31.836735"
     y="69.713043" />
  <path
     inkscape:connector-curvature="0"
     style="fill:none;fill-rule:evenodd;stroke:#6b6b6b;stroke-width:2.62552261;stroke-linecap:round;stroke-linejoin:miter;stroke-miterlimit:4;stroke-dasharray:2.62552258, 15.75313549;stroke-dashoffset:0;stroke-opacity:1"
     d="m 1153.9998,72.565934 0,754.923416"
     id="path4144" />
  <rect
     style="opacity:1;fill:#f3d7fa;fill-opacity:0.6204986;fill-rule:nonzero;stroke:none;stroke-width:3;stroke-linecap:round;stroke-linejoin:round;stroke-miterlimit:4;stroke-dasharray:3, 18;stroke-dashoffset:0;stroke-opacity:1"
     id="rect4146"
     width="253.2789"
     height="940.57391"
     x="1284.7892"
     y="69.713043" />
  <rect
     style="opacity:1;fill:#000000;fill-opacity:0.6204986;fill-rule:nonzero;stroke:none;stroke-width:3;stroke-linecap:round;stroke-linejoin:round;stroke-miterlimit:4;stroke-dasharray:3, 18;stroke-dashoffset:0;stroke-opacity:1"
     id="rect4148"
     width="65.034584"
     height="67.035645"
     x="1253.7206"
     y="506.48218" />
  <text
     sodipodi:linespacing="125%"
     xml:space="preserve"
     style="font-style:normal;font-variant:normal;font-weight:normal;font-stretch:normal;font-size:22.5px;line-height:125%;font-family:Quicksand;-inkscape-font-specification:Quicksand;letter-spacing:0px;word-spacing:0px;fill:#ffffff;fill-opacity:1;stroke:none;stroke-width:1px;stroke-linecap:butt;stroke-linejoin:miter;stroke-opacity:1"
     x="1260.6449"
     y="547.97626"
     id="text4150"><tspan
       id="tspan4152"
       x="1260.6449"
       y="547.97626">USB</tspan></text>
  <path
     inkscape:connector-curvature="0"
     style="fill:none;fill-rule:evenodd;stroke:#000000;stroke-width:3;stroke-linecap:butt;stroke-linejoin:miter;stroke-miterlimit:4;stroke-dasharray:none;stroke-opacity:1;marker-start:url(#Arrow1Mstart);marker-end:url(#Arrow1Mend)"
     d="m 1240.9918,540 -184.0488,0"
     id="path4154" />
  <rect
     style="opacity:1;fill:#000000;fill-opacity:0.61960784;fill-rule:nonzero;stroke:none;stroke-width:3;stroke-linecap:round;stroke-linejoin:round;stroke-miterlimit:4;stroke-dasharray:none;stroke-dashoffset:0;stroke-opacity:1"
     id="rect4512"
     width="90"
     height="90"
     x="1490.5149"
     y="90.577232" />
  <text
     sodipodi:linespacing="125%"
     xml:space="preserve"
     style="font-style:normal;font-variant:normal;font-weight:normal;font-stretch:normal;font-size:50px;line-height:125%;font-family:Quicksand;-inkscape-font-specification:Quicksand;letter-spacing:0px;word-spacing:0px;fill:#000000;fill-opacity:1;stroke:none;stroke-width:1px;stroke-linecap:butt;stroke-linejoin:miter;stroke-opacity:1"
     x="1509.295"
     y="143.45222"
     id="text4514"><tspan
       id="tspan4516"
       x="1509.295"
       y="143.45222"
       style="font-style:normal;font-variant:normal;font-weight:normal;font-stretch:normal;font-size:22.5px;font-family:Quicksand;-inkscape-font-specification:Quicksand;fill:#ffffff;fill-opacity:1">AIN0</tspan></text>
  <g
     transform="translate(1745.8665,149.57723)"
     id="layer1-6">
    <path
       inkscape:connector-curvature="0"
       id="path4138"
       d="M 4.4740616,-13.122757 C 38.35382,-90.423638 41.5092,62.849483 75.526052,-15.329378"
       style="fill:none;fill-rule:evenodd;stroke:#333333;stroke-width:6.55900002;stroke-linecap:round;stroke-linejoin:miter;stroke-miterlimit:4;stroke-dasharray:none;stroke-opacity:1" />
  </g>
  <rect
     style="opacity:1;fill:#000000;fill-opacity:0.61960784;fill-rule:nonzero;stroke:none;stroke-width:3;stroke-linecap:round;stroke-linejoin:round;stroke-miterlimit:4;stroke-dasharray:none;stroke-dashoffset:0;stroke-opacity:1"
     id="rect4512-5"
     width="90"
     height="90"
     x="1490.5149"
     y="193.10402" />
  <text
     sodipodi:linespacing="125%"
     xml:space="preserve"
     style="font-style:normal;font-variant:normal;font-weight:normal;font-stretch:normal;font-size:50px;line-height:125%;font-family:Quicksand;-inkscape-font-specification:Quicksand;letter-spacing:0px;word-spacing:0px;fill:#000000;fill-opacity:1;stroke:none;stroke-width:1px;stroke-linecap:butt;stroke-linejoin:miter;stroke-opacity:1"
     x="1495.3864"
     y="246.09151"
     id="text4514-6"><tspan
       id="tspan4516-2"
       x="1495.3864"
       y="246.09151"
       style="font-style:normal;font-variant:normal;font-weight:normal;font-stretch:normal;font-size:22.5px;font-family:Quicksand;-inkscape-font-specification:Quicksand;fill:#ffffff;fill-opacity:1">AOUT0</tspan></text>
  <g
     transform="translate(1745.8665,252.10403)"
     id="layer1-6-9">
    <path
       inkscape:connector-curvature="0"
       id="path4138-1"
       d="M 4.4740616,-13.122757 C 38.35382,-90.423638 41.5092,62.849483 75.526052,-15.329378"
       style="fill:none;fill-rule:evenodd;stroke:#333333;stroke-width:6.55900002;stroke-linecap:round;stroke-linejoin:miter;stroke-miterlimit:4;stroke-dasharray:none;stroke-opacity:1" />
  </g>
  <rect
     style="opacity:1;fill:#000000;fill-opacity:0.61960784;fill-rule:nonzero;stroke:none;stroke-width:3;stroke-linecap:round;stroke-linejoin:round;stroke-miterlimit:4;stroke-dasharray:none;stroke-dashoffset:0;stroke-opacity:1"
     id="rect4512-5-2"
     width="90"
     height="90"
     x="1490.5149"
     y="296.56323" />
  <text
     sodipodi:linespacing="125%"
     xml:space="preserve"
     style="font-style:normal;font-variant:normal;font-weight:normal;font-stretch:normal;font-size:50px;line-height:125%;font-family:Quicksand;-inkscape-font-specification:Quicksand;letter-spacing:0px;word-spacing:0px;fill:#000000;fill-opacity:1;stroke:none;stroke-width:1px;stroke-linecap:butt;stroke-linejoin:miter;stroke-opacity:1"
     x="1499.7028"
     y="349.43823"
     id="text4514-6-7"><tspan
       id="tspan4516-2-0"
       x="1499.7028"
       y="349.43823"
       style="font-style:normal;font-variant:normal;font-weight:normal;font-stretch:normal;font-size:22.5px;font-family:Quicksand;-inkscape-font-specification:Quicksand;fill:#ffffff;fill-opacity:1">PWM0</tspan></text>
  <rect
     style="opacity:1;fill:#000000;fill-opacity:0.61960784;fill-rule:nonzero;stroke:none;stroke-width:3;stroke-linecap:round;stroke-linejoin:round;stroke-miterlimit:4;stroke-dasharray:none;stroke-dashoffset:0;stroke-opacity:1"
     id="rect4512-5-2-9"
     width="90"
     height="90"
     x="1490.5149"
     y="398.62177" />
  <text
     sodipodi:linespacing="125%"
     xml:space="preserve"
     style="font-style:normal;font-variant:normal;font-weight:normal;font-stretch:normal;font-size:50px;line-height:125%;font-family:Quicksand;-inkscape-font-specification:Quicksand;letter-spacing:0px;word-spacing:0px;fill:#000000;fill-opacity:1;stroke:none;stroke-width:1px;stroke-linecap:butt;stroke-linejoin:miter;stroke-opacity:1"
     x="1503.4419"
     y="451.49677"
     id="text4514-6-7-3"><tspan
       id="tspan4516-2-0-6"
       x="1503.4419"
       y="451.49677"
       style="font-style:normal;font-variant:normal;font-weight:normal;font-stretch:normal;font-size:22.5px;font-family:Quicksand;-inkscape-font-specification:Quicksand;fill:#ffffff;fill-opacity:1">PWM1</tspan></text>
  <g
     transform="translate(1746.5586,-680.4944)"
     id="layer1-9">
    <path
       inkscape:connector-curvature="0"
       id="path2995"
       d="m 4.1750655,1043.0583 10.0608345,0.1268 -0.09961,-42.1617 27.194134,-0.123 -0.199213,42.0383 35.661176,0.123"
       style="fill:none;stroke:#333333;stroke-width:7.29188442;stroke-linecap:square;stroke-linejoin:miter;stroke-miterlimit:4;stroke-dasharray:none;stroke-opacity:1" />
  </g>
  <g
     transform="translate(1746.5586,-578.43586)"
     id="layer1-9-3">
    <path
       inkscape:connector-curvature="0"
       id="path2995-7"
       d="m 4.1750655,1043.0583 10.0608345,0.1268 -0.09961,-42.1617 27.194134,-0.123 -0.199213,42.0383 35.661176,0.123"
       style="fill:none;stroke:#333333;stroke-width:7.29188442;stroke-linecap:square;stroke-linejoin:miter;stroke-miterlimit:4;stroke-dasharray:none;stroke-opacity:1" />
  </g>
  <g
     transform="translate(1746.1588,-472.87541)"
     id="layer1-8">
    <g
       transform="translate(0.00501352,2.9343633)"
       id="g3753">
      <g
         transform="matrix(3.4355647,0,0,4.1654876,-1.4837339,-3298.7517)"
         id="g3768">
        <path
           inkscape:connector-curvature="0"
           id="path2987"
           d="m 1.6871734,1041.2507 c 2.0004355,0 4.0008711,0 6.0013064,0"
           style="fill:none;stroke:#333333;stroke-width:1.99934673;stroke-linecap:square;stroke-linejoin:miter;stroke-miterlimit:4;stroke-dasharray:none;stroke-opacity:1" />
        <path
           inkscape:connector-curvature="0"
           id="path2987-2"
           d="m 16.692742,1041.188 c 1.993171,0 3.986343,0 5.979516,0"
           style="fill:none;stroke:#333333;stroke-width:2.01042986;stroke-linecap:square;stroke-linejoin:miter;stroke-miterlimit:4;stroke-dasharray:none;stroke-opacity:1" />
        <path
           inkscape:connector-curvature="0"
           id="path2987-8"
           d="m 11.736522,1033.4803 c 2.057111,3.5827 2.266344,3.9547 4.265355,7.2965"
           style="fill:none;stroke:#333333;stroke-width:2;stroke-linecap:square;stroke-linejoin:miter;stroke-miterlimit:4;stroke-dasharray:none;stroke-opacity:1" />
      </g>
    </g>
  </g>
  <rect
     style="opacity:1;fill:#000000;fill-opacity:0.61960784;fill-rule:nonzero;stroke:none;stroke-width:3;stroke-linecap:round;stroke-linejoin:round;stroke-miterlimit:4;stroke-dasharray:none;stroke-dashoffset:0;stroke-opacity:1"
     id="rect4512-5-2-9-9"
     width="90"
     height="90"
     x="1490.5149"
     y="506.6792" />
  <text
     sodipodi:linespacing="125%"
     xml:space="preserve"
     style="font-style:normal;font-variant:normal;font-weight:normal;font-stretch:normal;font-size:50px;line-height:125%;font-family:Quicksand;-inkscape-font-specification:Quicksand;letter-spacing:0px;word-spacing:0px;fill:#000000;fill-opacity:1;stroke:none;stroke-width:1px;stroke-linecap:butt;stroke-linejoin:miter;stroke-opacity:1"
     x="1507.0856"
     y="559.5542"
     id="text4514-6-7-3-7"><tspan
       id="tspan4516-2-0-6-3"
       x="1507.0856"
       y="559.5542"
       style="font-style:normal;font-variant:normal;font-weight:normal;font-stretch:normal;font-size:22.5px;font-family:Quicksand;-inkscape-font-specification:Quicksand;fill:#ffffff;fill-opacity:1">DIO0</tspan></text>
  <rect
     style="opacity:1;fill:#000000;fill-opacity:0.61960784;fill-rule:nonzero;stroke:none;stroke-width:3;stroke-linecap:round;stroke-linejoin:round;stroke-miterlimit:4;stroke-dasharray:none;stroke-dashoffset:0;stroke-opacity:1"
     id="rect4512-5-2-9-9-9"
     width="90"
     height="159.30894"
     x="1490.5149"
     y="614.75366" />
  <text
     sodipodi:linespacing="125%"
     xml:space="preserve"
     style="font-style:normal;font-variant:normal;font-weight:normal;font-stretch:normal;font-size:50px;line-height:125%;font-family:Quicksand;-inkscape-font-specification:Quicksand;letter-spacing:0px;word-spacing:0px;fill:#000000;fill-opacity:1;stroke:none;stroke-width:1px;stroke-linecap:butt;stroke-linejoin:miter;stroke-opacity:1"
     x="1513.6718"
     y="654.06635"
     id="text4514-6-7-3-7-3"><tspan
       id="tspan4516-2-0-6-3-1"
       x="1513.6718"
       y="654.06635"
       style="font-style:normal;font-variant:normal;font-weight:normal;font-stretch:normal;font-size:22.5px;font-family:Quicksand;-inkscape-font-specification:Quicksand;fill:#ffffff;fill-opacity:1">+5V</tspan></text>
  <text
     sodipodi:linespacing="125%"
     xml:space="preserve"
     style="font-style:normal;font-variant:normal;font-weight:normal;font-stretch:normal;font-size:50px;line-height:125%;font-family:Quicksand;-inkscape-font-specification:Quicksand;letter-spacing:0px;word-spacing:0px;fill:#000000;fill-opacity:1;stroke:none;stroke-width:1px;stroke-linecap:butt;stroke-linejoin:miter;stroke-opacity:1"
     x="1516.0223"
     y="755.23663"
     id="text4514-6-7-3-7-3-9"><tspan
       id="tspan4516-2-0-6-3-1-4"
       x="1516.0223"
       y="755.23663"
       style="font-style:normal;font-variant:normal;font-weight:normal;font-stretch:normal;font-size:22.5px;font-family:Quicksand;-inkscape-font-specification:Quicksand;fill:#ffffff;fill-opacity:1">-5V</tspan></text>
  <text
     sodipodi:linespacing="125%"
     xml:space="preserve"
     style="font-style:normal;font-variant:normal;font-weight:normal;font-stretch:normal;font-size:50px;line-height:125%;font-family:Quicksand;-inkscape-font-specification:Quicksand;letter-spacing:0px;word-spacing:0px;fill:#000000;fill-opacity:1;stroke:none;stroke-width:1px;stroke-linecap:butt;stroke-linejoin:miter;stroke-opacity:1"
     x="1504.1796"
     y="704.51361"
     id="text4514-6-7-3-7-3-9-7"><tspan
       id="tspan4516-2-0-6-3-1-4-8"
       x="1504.1796"
       y="704.51361"
       style="font-style:normal;font-variant:normal;font-weight:normal;font-stretch:normal;font-size:22.5px;font-family:Quicksand;-inkscape-font-specification:Quicksand;fill:#ffffff;fill-opacity:1">+3.3V</tspan></text>
  <g
     id="g7284"
     transform="translate(1747.0142,664.87699)">
    <path
       inkscape:connector-curvature="0"
       id="path8361"
       style="color:#000000;fill:none;stroke:#000000;stroke-width:0.99102451mm;stroke-opacity:1"
       d="m 64.404635,29.763778 a 24.390789,24.865416 0 0 1 -48.781578,0 24.390789,24.865416 0 1 1 48.781578,0 z" />
    <path
       inkscape:connector-curvature="0"
       id="path8363"
       style="fill:none;stroke:#000000;stroke-width:0.99102451mm;stroke-linecap:square;stroke-opacity:1"
       d="m 64.404635,29.763778 13.839442,0" />
    <path
       inkscape:connector-curvature="0"
       id="path8365"
       style="fill:none;stroke:#000000;stroke-width:0.99102451mm;stroke-linecap:square;stroke-opacity:1"
       d="m 1.7836163,29.763778 13.8394407,0" />
    <path
       inkscape:connector-curvature="0"
       id="path2164"
       style="fill:none;stroke:#000000;stroke-width:0.99102451mm;stroke-linecap:square;stroke-opacity:1"
       d="m 27.10685,22.759436 25.813994,0" />
    <path
       inkscape:connector-curvature="0"
       id="path2166"
       style="fill:none;stroke:#000000;stroke-width:0.99102451mm;stroke-linecap:square;stroke-opacity:1"
       d="m 27.10685,36.76812 25.813994,0" />
    <path
       inkscape:connector-curvature="0"
       id="path9378"
       style="fill:none;stroke:#000000;stroke-width:0.49551226mm;stroke-linecap:butt;stroke-opacity:1"
       d="m 67.152893,16.855776 11.287488,0 m -5.594667,-5.803598 0,11.607196" />
  </g>
  <path
     inkscape:connector-curvature="0"
     style="fill:none;fill-rule:evenodd;stroke:#000000;stroke-width:2.5;stroke-linecap:round;stroke-linejoin:miter;stroke-miterlimit:4;stroke-dasharray:none;stroke-opacity:1;marker-end:url(#marker4908-7-0-2-0)"
     d="m 1595.4902,694.40816 135.1836,0"
     id="path4808-3-2-2-6" />
  <rect
     style="opacity:1;fill:#000000;fill-opacity:0.61960784;fill-rule:nonzero;stroke:none;stroke-width:3;stroke-linecap:round;stroke-linejoin:round;stroke-miterlimit:4;stroke-dasharray:none;stroke-dashoffset:0;stroke-opacity:1"
     id="rect4512-5-2-9-9-1"
     width="90"
     height="90"
     x="1490.5149"
     y="789.10968" />
  <text
     sodipodi:linespacing="125%"
     xml:space="preserve"
     style="font-style:normal;font-variant:normal;font-weight:normal;font-stretch:normal;font-size:50px;line-height:125%;font-family:Quicksand;-inkscape-font-specification:Quicksand;letter-spacing:0px;word-spacing:0px;fill:#000000;fill-opacity:1;stroke:none;stroke-width:1px;stroke-linecap:butt;stroke-linejoin:miter;stroke-opacity:1"
     x="1511.0708"
     y="841.98468"
     id="text4514-6-7-3-7-0"><tspan
       id="tspan4516-2-0-6-3-6"
       x="1511.0708"
       y="841.98468"
       style="font-style:normal;font-variant:normal;font-weight:normal;font-stretch:normal;font-size:22.5px;font-family:Quicksand;-inkscape-font-specification:Quicksand;fill:#ffffff;fill-opacity:1">I2C0</tspan></text>
  <rect
     style="opacity:1;fill:#000000;fill-opacity:0.61960784;fill-rule:nonzero;stroke:none;stroke-width:3;stroke-linecap:round;stroke-linejoin:round;stroke-miterlimit:4;stroke-dasharray:none;stroke-dashoffset:0;stroke-opacity:1"
     id="rect4512-5-2-9-9-1-6"
     width="90"
     height="90"
     x="1490.5149"
     y="891.6861" />
  <text
     sodipodi:linespacing="125%"
     xml:space="preserve"
     style="font-style:normal;font-variant:normal;font-weight:normal;font-stretch:normal;font-size:50px;line-height:125%;font-family:Quicksand;-inkscape-font-specification:Quicksand;letter-spacing:0px;word-spacing:0px;fill:#000000;fill-opacity:1;stroke:none;stroke-width:1px;stroke-linecap:butt;stroke-linejoin:miter;stroke-opacity:1"
     x="1509.3359"
     y="944.67358"
     id="text4514-6-7-3-7-0-9"><tspan
       x="1509.3359"
       y="944.67358"
       style="font-style:normal;font-variant:normal;font-weight:normal;font-stretch:normal;font-size:22.5px;font-family:Quicksand;-inkscape-font-specification:Quicksand;fill:#ffffff;fill-opacity:1"
       id="tspan27021">SPI0</tspan></text>
  <path
     inkscape:connector-curvature="0"
     style="fill:none;fill-rule:evenodd;stroke:#000000;stroke-width:2.5;stroke-linecap:round;stroke-linejoin:miter;stroke-miterlimit:4;stroke-dasharray:none;stroke-opacity:1;marker-start:url(#marker7009-3-2);marker-end:url(#marker4908-7-0-2-6-0-4)"
     d="m 1598.2221,931.14328 132.3893,0"
     id="path4808-3-2-2-2-1-4" />
  <g
     id="g9250"
     transform="translate(113.82041,23.635711)">
    <g
       id="g49798"
       transform="translate(-7.7823129,0)">
      <path
         inkscape:connector-curvature="0"
         style="fill:none;fill-rule:evenodd;stroke:#91383e;stroke-width:1.76418829;stroke-linecap:butt;stroke-linejoin:miter;stroke-miterlimit:4;stroke-dasharray:none;stroke-opacity:1"
         d="m 1641.1009,794.21358 92.0288,0"
         id="path8687" />
      <path
         inkscape:connector-curvature="0"
         style="fill:none;fill-rule:evenodd;stroke:#49408f;stroke-width:1.76418829;stroke-linecap:butt;stroke-linejoin:miter;stroke-miterlimit:4;stroke-dasharray:none;stroke-opacity:1"
         d="m 1640.9758,815.39518 106.113,0"
         id="path8689" />
      <path
         inkscape:connector-curvature="0"
         style="fill:none;fill-rule:evenodd;stroke:#91383e;stroke-width:1.76418829;stroke-linecap:butt;stroke-linejoin:miter;stroke-miterlimit:4;stroke-dasharray:none;stroke-opacity:1"
         d="m 1655.5743,794.33758 0,-9.9851 -2.3917,-1.3808 5.1322,-2.9631 -4.8872,-2.8216 4.9849,-2.8781 -4.9519,-2.9032 5.038,-2.7947 -2.8684,-1.7284 -0.073,-3.898"
         id="path8695" />
      <path
         inkscape:connector-curvature="0"
         style="fill:none;fill-rule:evenodd;stroke:#49408f;stroke-width:1.76418829;stroke-linecap:butt;stroke-linejoin:miter;stroke-miterlimit:4;stroke-dasharray:none;stroke-opacity:1"
         d="m 1666.5068,815.58698 0,-30.946 -2.3918,-1.3809 5.1322,-2.963 -4.8871,-2.8217 4.9849,-2.878 -4.9519,-2.9032 5.038,-2.7948 -2.8684,-1.7284 -0.073,-4.3392"
         id="path8695-4" />
      <path
         inkscape:connector-curvature="0"
         style="fill:none;fill-rule:evenodd;stroke:#ea0000;stroke-width:1.76418829;stroke-linecap:butt;stroke-linejoin:miter;stroke-miterlimit:4;stroke-dasharray:none;stroke-opacity:1"
         d="m 1655.5065,763.76518 0,-7.0605 10.9769,0 0.018,6.8472"
         id="path8740" />
      <text
         sodipodi:linespacing="125%"
         xml:space="preserve"
         style="font-style:normal;font-weight:normal;font-size:6.17890453px;line-height:125%;font-family:Sans;letter-spacing:0px;word-spacing:0px;fill:#ea0000;fill-opacity:1;stroke:none;stroke-width:1px;stroke-linecap:butt;stroke-linejoin:miter;stroke-opacity:1"
         x="1654.2538"
         y="754.53198"
         id="text8744"><tspan
           id="tspan8746"
           x="1654.2538"
           y="754.53198"
           style="font-style:normal;font-variant:normal;font-weight:bold;font-stretch:normal;font-family:Quicksand;-inkscape-font-specification:'Quicksand Bold';fill:#ea0000;fill-opacity:1">VDD</tspan></text>
      <path
         inkscape:connector-curvature="0"
         style="fill:none;fill-rule:evenodd;stroke:#49408f;stroke-width:1.76418829;stroke-linecap:butt;stroke-linejoin:miter;stroke-miterlimit:4;stroke-dasharray:none;stroke-opacity:1"
         d="m 1705.4071,814.87518 0,19.7621"
         id="path8750" />
      <path
         inkscape:connector-curvature="0"
         style="fill:none;fill-rule:evenodd;stroke:#91383e;stroke-width:1.76418829;stroke-linecap:butt;stroke-linejoin:miter;stroke-miterlimit:4;stroke-dasharray:none;stroke-opacity:1"
         d="m 1691.4696,793.86498 0,41.5004"
         id="path8750-3" />
      <rect
         style="opacity:1;fill:#c4c4c4;fill-opacity:1;fill-rule:nonzero;stroke:none;stroke-width:3;stroke-linecap:round;stroke-linejoin:round;stroke-miterlimit:4;stroke-dasharray:none;stroke-dashoffset:0;stroke-opacity:1"
         id="rect8748"
         width="27.440443"
         height="22.050354"
         x="1684.6049"
         y="832.14099" />
      <path
         inkscape:connector-curvature="0"
         style="fill:none;fill-rule:evenodd;stroke:#49408f;stroke-width:1.76418829;stroke-linecap:butt;stroke-linejoin:miter;stroke-miterlimit:4;stroke-dasharray:none;stroke-opacity:1"
         d="m 1746.2113,814.77358 0,19.7621"
         id="path8750-0" />
      <path
         inkscape:connector-curvature="0"
         style="fill:none;fill-rule:evenodd;stroke:#91383e;stroke-width:1.76418829;stroke-linecap:butt;stroke-linejoin:miter;stroke-miterlimit:4;stroke-dasharray:none;stroke-opacity:1"
         d="m 1732.2738,793.76338 0,41.5004"
         id="path8750-3-7" />
      <rect
         style="opacity:1;fill:#b2b2b2;fill-opacity:1;fill-rule:nonzero;stroke:none;stroke-width:3;stroke-linecap:round;stroke-linejoin:round;stroke-miterlimit:4;stroke-dasharray:none;stroke-dashoffset:0;stroke-opacity:1"
         id="rect8748-8"
         width="27.440443"
         height="22.050354"
         x="1725.4092"
         y="832.03943" />
    </g>
  </g>
  <g
     id="g49819"
     clip-path="url(#clipPath49830)"
     transform="translate(7.0748299,25.636775)">
    <g
       id="g49813"
       transform="matrix(0.75266886,0,0,0.75266886,452.23348,224.36484)"
       mask="url(#mask49836)">
      <g
         id="g8857"
         mask="none"
         transform="translate(-25.360742,-432.67386)">
        <path
           inkscape:connector-curvature="0"
           id="path8834"
           d="m 1723.4286,1316.2534 21.9319,0 0,26.1769 123.1331,0 0,-26.1769 30.016,0"
           style="fill:none;fill-rule:evenodd;stroke:#ab0000;stroke-width:1.5;stroke-linecap:butt;stroke-linejoin:miter;stroke-miterlimit:4;stroke-dasharray:none;stroke-opacity:1"
           mask="none" />
        <path
           inkscape:connector-curvature="0"
           id="path8838"
           d="m 1725.2831,1322.6207 28.4762,0 0,26.1769 8.9346,0 0.1251,-26.1769 8.3344,0 0.125,26.1769 9.0115,0 0,-26.1769 9.1973,0 0,26.1769 8.8435,0 0,-26.1769 8.4898,0 0,26.1769 7.8985,0 -0.3752,-26.1769 7.5385,0 0.037,26.1769 7.7672,0 0.2653,-26.1769 8.5262,0 0,26.1769 8.1388,0 0,-26.1769 8.6667,0 0,26.1769 9.0833,0 0,-26.1769 35.3113,0"
           style="fill:none;fill-rule:evenodd;stroke:#548200;stroke-width:1.5;stroke-linecap:butt;stroke-linejoin:miter;stroke-miterlimit:4;stroke-dasharray:none;stroke-opacity:1"
           mask="none" />
        <path
           inkscape:connector-curvature="0"
           id="path8838-4"
           d="m 1716.5117,1329.9283 28.4762,0 0,26.1769 26.5306,0 0,-26.1769 9.1973,0 0,26.1769 c 9.1966,0 16.2555,0 25.2318,0 l -0.3752,-26.1769 7.5385,0 0.037,26.1769 24.6975,0 0,-26.1769 8.6667,0 0,26.1769 9.0833,0 0,-26.1769 35.3113,0"
           style="fill:none;fill-rule:evenodd;stroke:#000582;stroke-width:1.5;stroke-linecap:butt;stroke-linejoin:miter;stroke-miterlimit:4;stroke-dasharray:none;stroke-opacity:1"
           mask="none" />
      </g>
    </g>
  </g>
  <path
     inkscape:connector-curvature="0"
     style="fill:none;fill-rule:evenodd;stroke:#6b6b6b;stroke-width:3;stroke-linecap:round;stroke-linejoin:miter;stroke-miterlimit:4;stroke-dasharray:3, 18;stroke-dashoffset:0;stroke-opacity:1"
     d="m 1682.1633,71.198378 0,937.603222"
     id="path4144-3" />
  <path
     inkscape:connector-curvature="0"
     style="fill:none;fill-rule:evenodd;stroke:#000000;stroke-width:2.5;stroke-linecap:round;stroke-linejoin:miter;stroke-miterlimit:4;stroke-dasharray:none;stroke-opacity:1;marker-start:url(#marker7009-3-2-1);marker-end:url(#marker4908-7-0-2-6-0-4-9)"
     d="m 1598.223,834.1097 132.3893,0"
     id="path4808-3-2-2-2-1-4-0" />
  <path
     inkscape:connector-curvature="0"
     style="fill:none;fill-rule:evenodd;stroke:#000000;stroke-width:2.5;stroke-linecap:round;stroke-linejoin:miter;stroke-miterlimit:4;stroke-dasharray:none;stroke-opacity:1;marker-start:url(#marker7009-3-2-1-6);marker-end:url(#marker4908-7-0-2-6-0-4-9-9)"
     d="m 1598.2734,551.67919 132.3851,0"
     id="path4808-3-2-2-2-1-4-0-6" />
  <path
     inkscape:connector-curvature="0"
     style="fill:none;fill-rule:evenodd;stroke:#000000;stroke-width:2.5;stroke-linecap:round;stroke-linejoin:miter;stroke-miterlimit:4;stroke-dasharray:none;stroke-opacity:1;marker-end:url(#marker4908-7-0-2-0-6)"
     d="m 1595.4748,443.62176 135.1845,0"
     id="path4808-3-2-2-6-9" />
  <path
     inkscape:connector-curvature="0"
     style="fill:none;fill-rule:evenodd;stroke:#000000;stroke-width:2.5;stroke-linecap:round;stroke-linejoin:miter;stroke-miterlimit:4;stroke-dasharray:none;stroke-opacity:1;marker-end:url(#marker4908-7-0-2-0-6-5)"
     d="m 1595.4748,341.56322 135.1845,0"
     id="path4808-3-2-2-6-9-4" />
  <path
     inkscape:connector-curvature="0"
     style="fill:none;fill-rule:evenodd;stroke:#000000;stroke-width:2.5;stroke-linecap:round;stroke-linejoin:miter;stroke-miterlimit:4;stroke-dasharray:none;stroke-opacity:1;marker-end:url(#marker4908-7-0-2-0-6-5-8)"
     d="m 1595.4748,238.10403 135.1845,0"
     id="path4808-3-2-2-6-9-4-1" />
  <path
     inkscape:connector-curvature="0"
     style="fill:none;fill-rule:evenodd;stroke:#000000;stroke-width:2.5;stroke-linecap:round;stroke-linejoin:miter;stroke-miterlimit:4;stroke-dasharray:none;stroke-opacity:1;marker-end:url(#marker4908-7-0-2-0-6-5-8-7)"
     d="m 1733.1984,135.57723 -133.9736,0"
     id="path4808-3-2-2-6-9-4-1-7" />
  <path
     inkscape:connector-curvature="0"
     style="fill:none;fill-rule:evenodd;stroke:#000000;stroke-width:2;stroke-linecap:butt;stroke-linejoin:miter;stroke-miterlimit:4;stroke-dasharray:none;stroke-opacity:1;marker-start:url(#marker15875);marker-end:url(#marker14817)"
     d="M 1302.2463,473.42745 1478.6395,140.46259"
     id="path14241" />
  <path
     inkscape:connector-curvature="0"
     style="fill:none;fill-rule:evenodd;stroke:#000000;stroke-width:2;stroke-linecap:butt;stroke-linejoin:miter;stroke-miterlimit:4;stroke-dasharray:none;stroke-opacity:1;marker-start:url(#marker15655);marker-end:url(#marker14627)"
     d="M 1331.9908,481.38102 1480.0545,240.92517"
     id="path14243" />
  <path
     inkscape:connector-curvature="0"
     style="fill:none;fill-rule:evenodd;stroke:#000000;stroke-width:2;stroke-linecap:butt;stroke-linejoin:miter;stroke-miterlimit:4;stroke-dasharray:none;stroke-opacity:1;marker-start:url(#marker18611);marker-end:url(#marker19189)"
     d="M 1482.8424,342.10762 1346.0929,500.30265"
     id="path14245" />
  <path
     inkscape:connector-curvature="0"
     style="fill:none;fill-rule:evenodd;stroke:#000000;stroke-width:2;stroke-linecap:butt;stroke-linejoin:miter;stroke-miterlimit:4;stroke-dasharray:none;stroke-opacity:1;marker-start:url(#marker15233);marker-end:url(#marker24167)"
     d="m 1352.1368,584.03652 127.704,111.25891"
     id="path14247" />
  <path
     inkscape:connector-curvature="0"
     style="fill:none;fill-rule:evenodd;stroke:#000000;stroke-width:2;stroke-linecap:butt;stroke-linejoin:miter;stroke-miterlimit:4;stroke-dasharray:none;stroke-opacity:1;marker-start:url(#marker7009);marker-end:url(#marker4908)"
     d="m 1335.264,598.49395 144.5768,242.37889"
     id="path14249" />
  <path
     inkscape:connector-curvature="0"
     style="fill:none;fill-rule:evenodd;stroke:#000000;stroke-width:2;stroke-linecap:butt;stroke-linejoin:miter;stroke-miterlimit:4;stroke-dasharray:none;stroke-opacity:1;marker-start:url(#marker16101);marker-end:url(#marker15013)"
     d="m 1304.2474,612.50141 174.5929,323.42198"
     id="path14251" />
  <path
     inkscape:connector-curvature="0"
     style="fill:none;fill-rule:evenodd;stroke:#000000;stroke-width:2;stroke-linecap:butt;stroke-linejoin:miter;stroke-miterlimit:4;stroke-dasharray:none;stroke-opacity:1;marker-start:url(#marker19457);marker-end:url(#marker25823)"
     d="m 1357.2756,525.20498 126.0671,-83.54442"
     id="path25785" />
  <path
     inkscape:connector-curvature="0"
     style="fill:none;fill-rule:evenodd;stroke:#000000;stroke-width:2;stroke-linecap:butt;stroke-linejoin:miter;stroke-miterlimit:4;stroke-dasharray:none;stroke-opacity:1;marker-start:url(#marker26135);marker-end:url(#marker26427)"
     d="m 1359.0749,554.34014 121.6871,0"
     id="path26127" />
  <rect
     style="opacity:1;fill:#000000;fill-opacity:0.6204986;fill-rule:nonzero;stroke:none;stroke-width:3;stroke-linecap:round;stroke-linejoin:round;stroke-miterlimit:4;stroke-dasharray:3, 18;stroke-dashoffset:0;stroke-opacity:1"
     id="rect4148-2"
     width="65.034584"
     height="67.035645"
     x="972.95465"
     y="508.79514" />
  <text
     sodipodi:linespacing="125%"
     xml:space="preserve"
     style="font-style:normal;font-variant:normal;font-weight:normal;font-stretch:normal;font-size:22.5px;line-height:125%;font-family:Quicksand;-inkscape-font-specification:Quicksand;letter-spacing:0px;word-spacing:0px;fill:#ffffff;fill-opacity:1;stroke:none;stroke-width:1px;stroke-linecap:butt;stroke-linejoin:miter;stroke-opacity:1"
     x="979.87897"
     y="550.28918"
     id="text4150-2"><tspan
       id="tspan4152-6"
       x="979.87897"
       y="550.28918">USB</tspan></text>
  <text
     sodipodi:linespacing="125%"
     xml:space="preserve"
     style="font-style:normal;font-weight:normal;font-size:23.14061737px;line-height:125%;font-family:Sans;letter-spacing:0px;word-spacing:0px;fill:#000000;fill-opacity:1;stroke:none;stroke-width:1px;stroke-linecap:butt;stroke-linejoin:miter;stroke-opacity:1"
     x="1153.9651"
     y="858.83557"
     id="text27610"><tspan
       x="1153.9651"
       y="858.83557"
       id="tspan27616"
       style="font-style:normal;font-variant:normal;font-weight:normal;font-stretch:normal;font-family:Inconsolata;-inkscape-font-specification:Inconsolata;text-align:center;text-anchor:middle"><tspan
   id="tspan50048"
   style="font-style:normal;font-variant:normal;font-weight:bold;font-stretch:normal;font-family:Inconsolata;-inkscape-font-specification:Inconsolata;text-align:center;text-anchor:middle">Box0-USB </tspan>Protocol</tspan><tspan
       x="1153.9651"
       y="887.76135"
       style="font-style:normal;font-variant:normal;font-weight:normal;font-stretch:normal;font-family:Inconsolata;-inkscape-font-specification:Inconsolata;text-align:center;text-anchor:middle"
       id="tspan49349">(Hardware indepdent)</tspan></text>
  <rect
     style="opacity:1;fill:#000000;fill-opacity:0.6204986;fill-rule:nonzero;stroke:none;stroke-width:3;stroke-linecap:round;stroke-linejoin:round;stroke-miterlimit:4;stroke-dasharray:3, 18;stroke-dashoffset:0;stroke-opacity:1"
     id="rect4148-2-6"
     width="102.05427"
     height="67.035645"
     x="766.18933"
     y="508.79514" />
  <text
     sodipodi:linespacing="125%"
     xml:space="preserve"
     style="font-style:normal;font-variant:normal;font-weight:normal;font-stretch:normal;font-size:22.5px;line-height:125%;font-family:Quicksand;-inkscape-font-specification:Quicksand;letter-spacing:0px;word-spacing:0px;fill:#ffffff;fill-opacity:1;stroke:none;stroke-width:1px;stroke-linecap:butt;stroke-linejoin:miter;stroke-opacity:1"
     x="776.32306"
     y="550.18793"
     id="text4150-2-1"><tspan
       id="tspan4152-6-5"
       x="776.32306"
       y="550.18793">libbox0</tspan></text>
  <path
     inkscape:connector-curvature="0"
     style="fill:none;fill-rule:evenodd;stroke:#000000;stroke-width:3;stroke-linecap:butt;stroke-linejoin:miter;stroke-miterlimit:4;stroke-dasharray:none;stroke-opacity:1;marker-start:url(#Arrow1Mstart-9);marker-end:url(#Arrow1Mend-9)"
     d="m 960.4295,543.46596 -78.63388,0"
     id="path4154-9" />
  <rect
     style="opacity:1;fill:#000000;fill-opacity:0.6204986;fill-rule:nonzero;stroke:none;stroke-width:3;stroke-linecap:round;stroke-linejoin:round;stroke-miterlimit:4;stroke-dasharray:3, 18;stroke-dashoffset:0;stroke-opacity:1"
     id="rect4148-2-6-1"
     width="167.1427"
     height="67.035645"
     x="370.66602"
     y="97.703651" />
  <text
     sodipodi:linespacing="125%"
     xml:space="preserve"
     style="font-style:normal;font-variant:normal;font-weight:normal;font-stretch:normal;font-size:22.5px;line-height:125%;font-family:Quicksand;-inkscape-font-specification:Quicksand;letter-spacing:0px;word-spacing:0px;fill:#ffffff;fill-opacity:1;stroke:none;stroke-width:1px;stroke-linecap:butt;stroke-linejoin:miter;stroke-opacity:1"
     x="383.73236"
     y="136.90271"
     id="text4150-2-1-7"><tspan
       id="tspan4152-6-5-7"
       x="383.73236"
       y="136.90271">Oscilloscope</tspan></text>
  <rect
     style="opacity:1;fill:#000000;fill-opacity:0.6204986;fill-rule:nonzero;stroke:none;stroke-width:3;stroke-linecap:round;stroke-linejoin:round;stroke-miterlimit:4;stroke-dasharray:3, 18;stroke-dashoffset:0;stroke-opacity:1"
     id="rect4148-2-6-1-1"
     width="215.25154"
     height="67.035645"
     x="567.4754"
     y="100.74401" />
  <text
     sodipodi:linespacing="125%"
     xml:space="preserve"
     style="font-style:normal;font-variant:normal;font-weight:normal;font-stretch:normal;font-size:22.5px;line-height:125%;font-family:Quicksand;-inkscape-font-specification:Quicksand;letter-spacing:0px;word-spacing:0px;fill:#ffffff;fill-opacity:1;stroke:none;stroke-width:1px;stroke-linecap:butt;stroke-linejoin:miter;stroke-opacity:1"
     x="580.54175"
     y="139.94307"
     id="text4150-2-1-7-1"><tspan
       id="tspan4152-6-5-7-5"
       x="580.54175"
       y="139.94307">Signal Generator</tspan></text>
  <rect
     style="opacity:1;fill:#000000;fill-opacity:0.6204986;fill-rule:nonzero;stroke:none;stroke-width:3;stroke-linecap:round;stroke-linejoin:round;stroke-miterlimit:4;stroke-dasharray:3, 18;stroke-dashoffset:0;stroke-opacity:1"
     id="rect4148-2-6-1-1-9"
     width="147.21536"
     height="67.035645"
     x="815.93933"
     y="101.02104" />
  <text
     sodipodi:linespacing="125%"
     xml:space="preserve"
     style="font-style:normal;font-variant:normal;font-weight:normal;font-stretch:normal;font-size:22.5px;line-height:125%;font-family:Quicksand;-inkscape-font-specification:Quicksand;letter-spacing:0px;word-spacing:0px;fill:#ffffff;fill-opacity:1;stroke:none;stroke-width:1px;stroke-linecap:butt;stroke-linejoin:miter;stroke-opacity:1"
     x="829.00568"
     y="140.22012"
     id="text4150-2-1-7-1-7"><tspan
       id="tspan4152-6-5-7-5-7"
       x="829.00568"
       y="140.22012">Voltmeter</tspan></text>
  <rect
     style="opacity:1;fill:#000000;fill-opacity:0.6204986;fill-rule:nonzero;stroke:none;stroke-width:3;stroke-linecap:round;stroke-linejoin:round;stroke-miterlimit:4;stroke-dasharray:3, 18;stroke-dashoffset:0;stroke-opacity:1"
     id="rect4148-2-6-1-1-9-6"
     width="79.179184"
     height="67.035645"
     x="371.70319"
     y="181.0636" />
  <text
     sodipodi:linespacing="125%"
     xml:space="preserve"
     style="font-style:normal;font-variant:normal;font-weight:normal;font-stretch:normal;font-size:22.5px;line-height:125%;font-family:Quicksand;-inkscape-font-specification:Quicksand;letter-spacing:0px;word-spacing:0px;fill:#ffffff;fill-opacity:1;stroke:none;stroke-width:1px;stroke-linecap:butt;stroke-linejoin:miter;stroke-opacity:1"
     x="384.76953"
     y="220.2627"
     id="text4150-2-1-7-1-7-7"><tspan
       id="tspan4152-6-5-7-5-7-3"
       x="384.76953"
       y="220.2627">DIO</tspan></text>
  <rect
     style="opacity:1;fill:#000000;fill-opacity:0.6204986;fill-rule:nonzero;stroke:none;stroke-width:3;stroke-linecap:round;stroke-linejoin:round;stroke-miterlimit:4;stroke-dasharray:3, 18;stroke-dashoffset:0;stroke-opacity:1"
     id="rect4148-2-6-1-1-9-6-6"
     width="79.179184"
     height="67.035645"
     x="471.75635"
     y="183.06465" />
  <text
     sodipodi:linespacing="125%"
     xml:space="preserve"
     style="font-style:normal;font-variant:normal;font-weight:normal;font-stretch:normal;font-size:22.5px;line-height:125%;font-family:Quicksand;-inkscape-font-specification:Quicksand;letter-spacing:0px;word-spacing:0px;fill:#ffffff;fill-opacity:1;stroke:none;stroke-width:1px;stroke-linecap:butt;stroke-linejoin:miter;stroke-opacity:1"
     x="484.82269"
     y="222.26375"
     id="text4150-2-1-7-1-7-7-5"><tspan
       id="tspan4152-6-5-7-5-7-3-6"
       x="484.82269"
       y="222.26375">PWM</tspan></text>
  <rect
     style="opacity:1;fill:#000000;fill-opacity:0.6204986;fill-rule:nonzero;stroke:none;stroke-width:3;stroke-linecap:round;stroke-linejoin:round;stroke-miterlimit:4;stroke-dasharray:3, 18;stroke-dashoffset:0;stroke-opacity:1"
     id="rect4148-2-6-1-1-9-6-6-3"
     width="172.22867"
     height="67.035645"
     x="570.80902"
     y="181.06363" />
  <text
     sodipodi:linespacing="125%"
     xml:space="preserve"
     style="font-style:normal;font-variant:normal;font-weight:normal;font-stretch:normal;font-size:22.5px;line-height:125%;font-family:Quicksand;-inkscape-font-specification:Quicksand;letter-spacing:0px;word-spacing:0px;fill:#ffffff;fill-opacity:1;stroke:none;stroke-width:1px;stroke-linecap:butt;stroke-linejoin:miter;stroke-opacity:1"
     x="583.87537"
     y="220.2627"
     id="text4150-2-1-7-1-7-7-5-9"><tspan
       id="tspan4152-6-5-7-5-7-3-6-4"
       x="583.87537"
       y="220.2627">Power supply</tspan></text>
  <rect
     style="opacity:0.42900002;fill:#dddddd;fill-opacity:0.89655175;fill-rule:nonzero;stroke:none;stroke-width:1.89474428;stroke-linecap:round;stroke-linejoin:round;stroke-miterlimit:4;stroke-dasharray:none;stroke-dashoffset:0;stroke-opacity:1"
     id="rect29153-5"
     width="195.64429"
     height="165.58423"
     x="783.22174"
     y="840.80237" />
  <rect
     style="opacity:1;fill:#000000;fill-opacity:0.6204986;fill-rule:nonzero;stroke:none;stroke-width:3;stroke-linecap:round;stroke-linejoin:round;stroke-miterlimit:4;stroke-dasharray:3, 18;stroke-dashoffset:0;stroke-opacity:1"
     id="rect4148-2-6-1-1-9-6-6-3-8"
     width="158.22122"
     height="67.035645"
     x="802.69794"
     y="918.65118" />
  <text
     sodipodi:linespacing="125%"
     xml:space="preserve"
     style="font-style:normal;font-variant:normal;font-weight:normal;font-stretch:normal;font-size:22.5px;line-height:125%;font-family:Quicksand;-inkscape-font-specification:Quicksand;letter-spacing:0px;word-spacing:0px;fill:#ffffff;fill-opacity:1;stroke:none;stroke-width:1px;stroke-linecap:butt;stroke-linejoin:miter;stroke-opacity:1"
     x="815.06299"
     y="957.85022"
     id="text4150-2-1-7-1-7-7-5-9-1"><tspan
       id="tspan4152-6-5-7-5-7-3-6-4-2"
       x="815.06299"
       y="957.85022">Data logger</tspan></text>
  <rect
     style="opacity:1;fill:#000000;fill-opacity:0.6204986;fill-rule:nonzero;stroke:none;stroke-width:3;stroke-linecap:round;stroke-linejoin:round;stroke-miterlimit:4;stroke-dasharray:3, 18;stroke-dashoffset:0;stroke-opacity:1"
     id="rect4148-2-6-1-1-9-6-6-3-8-9"
     width="156"
     height="67.035645"
     x="363.11151"
     y="294.18683" />
  <text
     sodipodi:linespacing="125%"
     xml:space="preserve"
     style="font-style:normal;font-variant:normal;font-weight:normal;font-stretch:normal;font-size:22.5px;line-height:125%;font-family:Quicksand;-inkscape-font-specification:Quicksand;letter-spacing:0px;word-spacing:0px;fill:#ffffff;fill-opacity:1;stroke:none;stroke-width:1px;stroke-linecap:butt;stroke-linejoin:miter;stroke-opacity:1"
     x="399.71027"
     y="335.50824"
     id="text4150-2-1-7-1-7-7-5-9-1-3"><tspan
       id="tspan4152-6-5-7-5-7-3-6-4-2-9"
       x="399.71027"
       y="335.50824">pyBox0</tspan></text>
  <rect
     style="opacity:1;fill:#000000;fill-opacity:0.6204986;fill-rule:nonzero;stroke:none;stroke-width:3;stroke-linecap:round;stroke-linejoin:round;stroke-miterlimit:4;stroke-dasharray:3, 18;stroke-dashoffset:0;stroke-opacity:1"
     id="rect4148-2-6-1-1-9-6-6-3-8-9-0"
     width="111.52734"
     height="67.035645"
     x="80.536942"
     y="293.62518" />
  <text
     sodipodi:linespacing="125%"
     xml:space="preserve"
     style="font-style:normal;font-variant:normal;font-weight:normal;font-stretch:normal;font-size:22.5px;line-height:125%;font-family:Quicksand;-inkscape-font-specification:Quicksand;letter-spacing:0px;word-spacing:0px;fill:#ffffff;fill-opacity:1;stroke:none;stroke-width:1px;stroke-linecap:butt;stroke-linejoin:miter;stroke-opacity:1"
     x="97.988213"
     y="332.82428"
     id="text4150-2-1-7-1-7-7-5-9-1-3-8"><tspan
       id="tspan4152-6-5-7-5-7-3-6-4-2-9-8"
       x="97.988213"
       y="332.82428">Python</tspan></text>
  <rect
     style="opacity:1;fill:#000000;fill-opacity:0.6204986;fill-rule:nonzero;stroke:none;stroke-width:3;stroke-linecap:round;stroke-linejoin:round;stroke-miterlimit:4;stroke-dasharray:3, 18;stroke-dashoffset:0;stroke-opacity:1"
     id="rect4148-2-6-1-1-9-6-6-3-8-9-5"
     width="156"
     height="67.035645"
     x="363.11151"
     y="383.06503" />
  <text
     sodipodi:linespacing="125%"
     xml:space="preserve"
     style="font-style:normal;font-variant:normal;font-weight:normal;font-stretch:normal;font-size:22.5px;line-height:125%;font-family:Quicksand;-inkscape-font-specification:Quicksand;letter-spacing:0px;word-spacing:0px;fill:#ffffff;fill-opacity:1;stroke:none;stroke-width:1px;stroke-linecap:butt;stroke-linejoin:miter;stroke-opacity:1"
     x="380.19855"
     y="424.38657"
     id="text4150-2-1-7-1-7-7-5-9-1-3-0"><tspan
       id="tspan4152-6-5-7-5-7-3-6-4-2-9-9"
       x="380.19855"
       y="424.38657">node-box0</tspan></text>
  <rect
     style="opacity:1;fill:#000000;fill-opacity:0.6204986;fill-rule:nonzero;stroke:none;stroke-width:3;stroke-linecap:round;stroke-linejoin:round;stroke-miterlimit:4;stroke-dasharray:3, 18;stroke-dashoffset:0;stroke-opacity:1"
     id="rect4148-2-6-1-1-9-6-6-3-8-9-0-6"
     width="111.52734"
     height="67.035645"
     x="80.536942"
     y="382.50345" />
  <text
     sodipodi:linespacing="125%"
     xml:space="preserve"
     style="font-style:normal;font-variant:normal;font-weight:normal;font-stretch:normal;font-size:22.5px;line-height:125%;font-family:Quicksand;-inkscape-font-specification:Quicksand;letter-spacing:0px;word-spacing:0px;fill:#ffffff;fill-opacity:1;stroke:none;stroke-width:1px;stroke-linecap:butt;stroke-linejoin:miter;stroke-opacity:1"
     x="91.782082"
     y="421.70242"
     id="text4150-2-1-7-1-7-7-5-9-1-3-8-3"><tspan
       id="tspan4152-6-5-7-5-7-3-6-4-2-9-8-8"
       x="91.782082"
       y="421.70242">NodeJS</tspan></text>
  <rect
     style="opacity:1;fill:#000000;fill-opacity:0.6204986;fill-rule:nonzero;stroke:none;stroke-width:3;stroke-linecap:round;stroke-linejoin:round;stroke-miterlimit:4;stroke-dasharray:3, 18;stroke-dashoffset:0;stroke-opacity:1"
     id="rect4148-2-6-1-1-9-6-6-3-8-9-5-5"
     width="156"
     height="67.035645"
     x="363.11151"
     y="477.11508" />
  <text
     sodipodi:linespacing="125%"
     xml:space="preserve"
     style="font-style:normal;font-variant:normal;font-weight:normal;font-stretch:normal;font-size:22.5px;line-height:125%;font-family:Quicksand;-inkscape-font-specification:Quicksand;letter-spacing:0px;word-spacing:0px;fill:#ffffff;fill-opacity:1;stroke:none;stroke-width:1px;stroke-linecap:butt;stroke-linejoin:miter;stroke-opacity:1"
     x="412.06277"
     y="518.43646"
     id="text4150-2-1-7-1-7-7-5-9-1-3-0-6"><tspan
       id="tspan4152-6-5-7-5-7-3-6-4-2-9-9-1"
       x="412.06277"
       y="518.43646">jBox0</tspan></text>
  <rect
     style="opacity:1;fill:#000000;fill-opacity:0.6204986;fill-rule:nonzero;stroke:none;stroke-width:3;stroke-linecap:round;stroke-linejoin:round;stroke-miterlimit:4;stroke-dasharray:3, 18;stroke-dashoffset:0;stroke-opacity:1"
     id="rect4148-2-6-1-1-9-6-6-3-8-9-0-6-1"
     width="111.52734"
     height="67.035645"
     x="80.536942"
     y="476.55338" />
  <text
     sodipodi:linespacing="125%"
     xml:space="preserve"
     style="font-style:normal;font-variant:normal;font-weight:normal;font-stretch:normal;font-size:22.5px;line-height:125%;font-family:Quicksand;-inkscape-font-specification:Quicksand;letter-spacing:0px;word-spacing:0px;fill:#ffffff;fill-opacity:1;stroke:none;stroke-width:1px;stroke-linecap:butt;stroke-linejoin:miter;stroke-opacity:1"
     x="109.93471"
     y="515.75244"
     id="text4150-2-1-7-1-7-7-5-9-1-3-8-3-5"><tspan
       id="tspan4152-6-5-7-5-7-3-6-4-2-9-8-8-9"
       x="109.93471"
       y="515.75244">Java</tspan></text>
  <rect
     style="opacity:1;fill:#000000;fill-opacity:0.6204986;fill-rule:nonzero;stroke:none;stroke-width:3;stroke-linecap:round;stroke-linejoin:round;stroke-miterlimit:4;stroke-dasharray:3, 18;stroke-dashoffset:0;stroke-opacity:1"
     id="rect4148-2-6-1-1-9-6-6-3-8-9-5-5-8"
     width="156"
     height="67.035645"
     x="363.11151"
     y="570.16443" />
  <text
     sodipodi:linespacing="125%"
     xml:space="preserve"
     style="font-style:normal;font-variant:normal;font-weight:normal;font-stretch:normal;font-size:22.5px;line-height:125%;font-family:Quicksand;-inkscape-font-specification:Quicksand;letter-spacing:0px;word-spacing:0px;fill:#ffffff;fill-opacity:1;stroke:none;stroke-width:1px;stroke-linecap:butt;stroke-linejoin:miter;stroke-opacity:1"
     x="404.75696"
     y="611.48584"
     id="text4150-2-1-7-1-7-7-5-9-1-3-0-6-4"><tspan
       id="tspan4152-6-5-7-5-7-3-6-4-2-9-9-1-8"
       x="404.75696"
       y="611.48584">Box0.jl</tspan></text>
  <rect
     style="opacity:1;fill:#000000;fill-opacity:0.6204986;fill-rule:nonzero;stroke:none;stroke-width:3;stroke-linecap:round;stroke-linejoin:round;stroke-miterlimit:4;stroke-dasharray:3, 18;stroke-dashoffset:0;stroke-opacity:1"
     id="rect4148-2-6-1-1-9-6-6-3-8-9-0-6-1-1"
     width="111.52734"
     height="67.035645"
     x="80.536942"
     y="569.60272" />
  <text
     sodipodi:linespacing="125%"
     xml:space="preserve"
     style="font-style:normal;font-variant:normal;font-weight:normal;font-stretch:normal;font-size:22.5px;line-height:125%;font-family:Quicksand;-inkscape-font-specification:Quicksand;letter-spacing:0px;word-spacing:0px;fill:#ffffff;fill-opacity:1;stroke:none;stroke-width:1px;stroke-linecap:butt;stroke-linejoin:miter;stroke-opacity:1"
     x="110.59389"
     y="608.80182"
     id="text4150-2-1-7-1-7-7-5-9-1-3-8-3-5-0"><tspan
       id="tspan4152-6-5-7-5-7-3-6-4-2-9-8-8-9-3"
       x="110.59389"
       y="608.80182">Julia</tspan></text>
  <rect
     style="opacity:1;fill:#000000;fill-opacity:0.6204986;fill-rule:nonzero;stroke:none;stroke-width:3;stroke-linecap:round;stroke-linejoin:round;stroke-miterlimit:4;stroke-dasharray:3, 18;stroke-dashoffset:0;stroke-opacity:1"
     id="rect4148-2-6-1-1-9-6-6-3-8-9-0-6-1-1-0"
     width="111.52734"
     height="67.035645"
     x="80.536942"
     y="655.85565" />
  <text
     sodipodi:linespacing="125%"
     xml:space="preserve"
     style="font-style:normal;font-variant:normal;font-weight:normal;font-stretch:normal;font-size:22.5px;line-height:125%;font-family:Quicksand;-inkscape-font-specification:Quicksand;letter-spacing:0px;word-spacing:0px;fill:#ffffff;fill-opacity:1;stroke:none;stroke-width:1px;stroke-linecap:butt;stroke-linejoin:miter;stroke-opacity:1"
     x="127.91436"
     y="695.05475"
     id="text4150-2-1-7-1-7-7-5-9-1-3-8-3-5-0-4"><tspan
       id="tspan4152-6-5-7-5-7-3-6-4-2-9-8-8-9-3-4"
       x="127.91436"
       y="695.05475">C</tspan></text>
  <rect
     style="opacity:1;fill:#000000;fill-opacity:0.6204986;fill-rule:nonzero;stroke:none;stroke-width:3;stroke-linecap:round;stroke-linejoin:round;stroke-miterlimit:4;stroke-dasharray:3, 18;stroke-dashoffset:0;stroke-opacity:1"
     id="rect4148-2-6-1-1-9-6-6-3-8-9-0-6-1-1-0-4"
     width="111.52734"
     height="67.035645"
     x="80.536942"
     y="744.85284" />
  <text
     sodipodi:linespacing="125%"
     xml:space="preserve"
     style="font-style:normal;font-variant:normal;font-weight:normal;font-stretch:normal;font-size:22.5px;line-height:125%;font-family:Quicksand;-inkscape-font-specification:Quicksand;letter-spacing:0px;word-spacing:0px;fill:#ffffff;fill-opacity:1;stroke:none;stroke-width:1px;stroke-linecap:butt;stroke-linejoin:miter;stroke-opacity:1"
     x="113.48983"
     y="784.05194"
     id="text4150-2-1-7-1-7-7-5-9-1-3-8-3-5-0-4-4"><tspan
       id="tspan4152-6-5-7-5-7-3-6-4-2-9-8-8-9-3-4-7"
       x="113.48983"
       y="784.05194">C++</tspan></text>
  <text
     sodipodi:linespacing="125%"
     xml:space="preserve"
     style="font-style:normal;font-weight:normal;font-size:31.52636528px;line-height:125%;font-family:Sans;letter-spacing:0px;word-spacing:0px;fill:#3a3c20;fill-opacity:0.76470588;stroke:none;stroke-width:1px;stroke-linecap:butt;stroke-linejoin:miter;stroke-opacity:1"
     x="799.96851"
     y="248.74158"
     id="text29155"><tspan
       id="tspan29157"
       x="799.96851"
       y="248.74158"
       style="font-style:normal;font-variant:normal;font-weight:normal;font-stretch:normal;font-family:Inconsolata;-inkscape-font-specification:Inconsolata;fill:#3a3c20;fill-opacity:0.76470588">Box0 Studio</tspan></text>
  <text
     sodipodi:linespacing="125%"
     xml:space="preserve"
     style="font-style:normal;font-weight:normal;font-size:31.52636528px;line-height:125%;font-family:Sans;letter-spacing:0px;word-spacing:0px;fill:#3a3c20;fill-opacity:0.76470588;stroke:none;stroke-width:1px;stroke-linecap:butt;stroke-linejoin:miter;stroke-opacity:1"
     x="794.70123"
     y="884.64844"
     id="text29155-9"><tspan
       id="tspan29157-6"
       x="794.70123"
       y="884.64844"
       style="font-style:normal;font-variant:normal;font-weight:normal;font-stretch:normal;font-family:Inconsolata;-inkscape-font-specification:Inconsolata;fill:#3a3c20;fill-opacity:0.76470588">LiaB Studio</tspan></text>
  <path
     inkscape:connector-curvature="0"
     style="fill:none;fill-rule:evenodd;stroke:#000000;stroke-width:2.5;stroke-linecap:butt;stroke-linejoin:miter;stroke-miterlimit:4;stroke-dasharray:none;stroke-opacity:1;marker-start:url(#marker29237);marker-end:url(#marker29553)"
     d="m 801.44948,286.63324 0,169.49424"
     id="path29229" />
  <path
     inkscape:connector-curvature="0"
     style="fill:none;fill-rule:evenodd;stroke:#000000;stroke-width:2.5;stroke-linecap:butt;stroke-linejoin:miter;stroke-miterlimit:4;stroke-dasharray:none;stroke-opacity:1;marker-start:url(#marker29237-2);marker-end:url(#marker29553-7)"
     d="m 801.57823,625.32816 -0.70748,186.29606"
     id="path29229-5" />
  <path
     inkscape:connector-curvature="0"
     style="fill:none;fill-rule:evenodd;stroke:#000000;stroke-width:2.5;stroke-linecap:butt;stroke-linejoin:miter;stroke-miterlimit:4;stroke-dasharray:none;stroke-opacity:1;marker-start:url(#marker32720);marker-end:url(#marker34940)"
     d="M 532.28305,331.94536 768.25777,469.79073"
     id="path31032" />
  <path
     inkscape:connector-curvature="0"
     style="fill:none;fill-rule:evenodd;stroke:#000000;stroke-width:2.5;stroke-linecap:butt;stroke-linejoin:miter;stroke-miterlimit:4;stroke-dasharray:none;stroke-opacity:1;marker-start:url(#marker31050);marker-end:url(#marker33084)"
     d="m 533.78385,416.69754 214.92799,74.58381"
     id="path31034" />
  <path
     inkscape:connector-curvature="0"
     style="fill:none;fill-rule:evenodd;stroke:#000000;stroke-width:2.5;stroke-linecap:butt;stroke-linejoin:miter;stroke-miterlimit:4;stroke-dasharray:none;stroke-opacity:1;marker-start:url(#marker32374);marker-end:url(#marker34552)"
     d="m 532.78331,509.69674 203.19385,17.13905"
     id="path31036" />
  <path
     inkscape:connector-curvature="0"
     style="fill:none;fill-rule:evenodd;stroke:#000000;stroke-width:2.5;stroke-linecap:butt;stroke-linejoin:miter;stroke-miterlimit:4;stroke-dasharray:none;stroke-opacity:1;marker-start:url(#marker32034);marker-end:url(#marker34176)"
     d="M 532.28305,600.65322 737.37129,555.65873"
     id="path31038" />
  <path
     inkscape:connector-curvature="0"
     style="fill:none;fill-rule:evenodd;stroke:#000000;stroke-width:2.5;stroke-linecap:butt;stroke-linejoin:miter;stroke-miterlimit:4;stroke-dasharray:none;stroke-opacity:1;marker-start:url(#marker31700);marker-end:url(#marker33806)"
     d="m 209.1112,687.99256 319.16972,0 218.85293,-105.54141"
     id="path31040" />
  <path
     inkscape:connector-curvature="0"
     style="fill:none;fill-rule:evenodd;stroke:#000000;stroke-width:2.5;stroke-linecap:butt;stroke-linejoin:miter;stroke-miterlimit:4;stroke-dasharray:none;stroke-opacity:1;marker-start:url(#marker31372);marker-end:url(#marker33442)"
     d="M 207.11013,759.95976 528.28092,758.95923 762.02044,603.94787"
     id="path31042" />
  <rect
     style="opacity:0.42900002;fill:#dddddd;fill-opacity:0.89655175;fill-rule:nonzero;stroke:none;stroke-width:1.89474428;stroke-linecap:round;stroke-linejoin:round;stroke-miterlimit:4;stroke-dasharray:none;stroke-dashoffset:0;stroke-opacity:1"
     id="rect29153-5-7"
     width="391.61707"
     height="235.05264"
     x="349.30707"
     y="774.78094" />
  <text
     sodipodi:linespacing="125%"
     xml:space="preserve"
     style="font-style:normal;font-weight:normal;font-size:31.52636528px;line-height:125%;font-family:Sans;letter-spacing:0px;word-spacing:0px;fill:#3a3c20;fill-opacity:0.76470588;stroke:none;stroke-width:1px;stroke-linecap:butt;stroke-linejoin:miter;stroke-opacity:1"
     x="496.62329"
     y="810.31317"
     id="text29155-9-4"><tspan
       id="tspan29157-6-1"
       x="496.62329"
       y="810.31317"
       style="font-style:normal;font-variant:normal;font-weight:normal;font-stretch:normal;font-family:Inconsolata;-inkscape-font-specification:Inconsolata;fill:#3a3c20;fill-opacity:0.76470588">Shell utilities</tspan></text>
  <rect
     style="opacity:1;fill:#000000;fill-opacity:0.6204986;fill-rule:nonzero;stroke:none;stroke-width:3;stroke-linecap:round;stroke-linejoin:round;stroke-miterlimit:4;stroke-dasharray:3, 18;stroke-dashoffset:0;stroke-opacity:1"
     id="rect4148-2-6-1-1-9-6-8"
     width="122.70233"
     height="67.035645"
     x="365.86865"
     y="843.89532" />
  <text
     sodipodi:linespacing="125%"
     xml:space="preserve"
     style="font-style:normal;font-variant:normal;font-weight:normal;font-stretch:normal;font-size:22.5px;line-height:125%;font-family:Inconsolata;-inkscape-font-specification:Inconsolata;letter-spacing:0px;word-spacing:0px;fill:#ffffff;fill-opacity:1;stroke:none;stroke-width:1px;stroke-linecap:butt;stroke-linejoin:miter;stroke-opacity:1"
     x="377.4342"
     y="883.09442"
     id="text4150-2-1-7-1-7-7-59"><tspan
       id="tspan4152-6-5-7-5-7-3-7"
       x="377.4342"
       y="883.09442">b0ain2csv</tspan></text>
  <rect
     style="opacity:1;fill:#000000;fill-opacity:0.6204986;fill-rule:nonzero;stroke:none;stroke-width:3;stroke-linecap:round;stroke-linejoin:round;stroke-miterlimit:4;stroke-dasharray:3, 18;stroke-dashoffset:0;stroke-opacity:1"
     id="rect4148-2-6-1-1-9-6-8-5"
     width="90.685303"
     height="67.035645"
     x="514.94788"
     y="843.89532" />
  <text
     sodipodi:linespacing="125%"
     xml:space="preserve"
     style="font-style:normal;font-variant:normal;font-weight:normal;font-stretch:normal;font-size:22.5px;line-height:125%;font-family:Inconsolata;-inkscape-font-specification:Inconsolata;letter-spacing:0px;word-spacing:0px;fill:#ffffff;fill-opacity:1;stroke:none;stroke-width:1px;stroke-linecap:butt;stroke-linejoin:miter;stroke-opacity:1"
     x="526.51343"
     y="883.09442"
     id="text4150-2-1-7-1-7-7-59-3"><tspan
       id="tspan4152-6-5-7-5-7-3-7-8"
       x="526.51343"
       y="883.09442">b0aout</tspan></text>
  <rect
     style="opacity:1;fill:#000000;fill-opacity:0.6204986;fill-rule:nonzero;stroke:none;stroke-width:3;stroke-linecap:round;stroke-linejoin:round;stroke-miterlimit:4;stroke-dasharray:3, 18;stroke-dashoffset:0;stroke-opacity:1"
     id="rect4148-2-6-1-1-9-6-8-5-8"
     width="90.685303"
     height="67.035645"
     x="628.25818"
     y="842.39453" />
  <text
     sodipodi:linespacing="125%"
     xml:space="preserve"
     style="font-style:normal;font-variant:normal;font-weight:normal;font-stretch:normal;font-size:22.5px;line-height:125%;font-family:Inconsolata;-inkscape-font-specification:Inconsolata;letter-spacing:0px;word-spacing:0px;fill:#ffffff;fill-opacity:1;stroke:none;stroke-width:1px;stroke-linecap:butt;stroke-linejoin:miter;stroke-opacity:1"
     x="639.82373"
     y="881.59363"
     id="text4150-2-1-7-1-7-7-59-3-3"><tspan
       id="tspan4152-6-5-7-5-7-3-7-8-1"
       x="639.82373"
       y="881.59363">b0i2c</tspan></text>
  <rect
     style="opacity:1;fill:#000000;fill-opacity:0.6204986;fill-rule:nonzero;stroke:none;stroke-width:3;stroke-linecap:round;stroke-linejoin:round;stroke-miterlimit:4;stroke-dasharray:3, 18;stroke-dashoffset:0;stroke-opacity:1"
     id="rect4148-2-6-1-1-9-6-8-5-8-8"
     width="90.685303"
     height="67.035645"
     x="365.04776"
     y="923.94043" />
  <text
     sodipodi:linespacing="125%"
     xml:space="preserve"
     style="font-style:normal;font-variant:normal;font-weight:normal;font-stretch:normal;font-size:22.5px;line-height:125%;font-family:Inconsolata;-inkscape-font-specification:Inconsolata;letter-spacing:0px;word-spacing:0px;fill:#ffffff;fill-opacity:1;stroke:none;stroke-width:1px;stroke-linecap:butt;stroke-linejoin:miter;stroke-opacity:1"
     x="376.61331"
     y="963.13959"
     id="text4150-2-1-7-1-7-7-59-3-3-9"><tspan
       id="tspan4152-6-5-7-5-7-3-7-8-1-6"
       x="376.61331"
       y="963.13959">b0pwm</tspan></text>
  <rect
     style="opacity:1;fill:#000000;fill-opacity:0.6204986;fill-rule:nonzero;stroke:none;stroke-width:3;stroke-linecap:round;stroke-linejoin:round;stroke-miterlimit:4;stroke-dasharray:3, 18;stroke-dashoffset:0;stroke-opacity:1"
     id="rect4148-2-6-1-1-9-6-8-5-8-8-4"
     width="119.69211"
     height="67.035645"
     x="477.46646"
     y="926.06287" />
  <text
     sodipodi:linespacing="125%"
     xml:space="preserve"
     style="font-style:normal;font-variant:normal;font-weight:normal;font-stretch:normal;font-size:22.5px;line-height:125%;font-family:Inconsolata;-inkscape-font-specification:Inconsolata;letter-spacing:0px;word-spacing:0px;fill:#ffffff;fill-opacity:1;stroke:none;stroke-width:1px;stroke-linecap:butt;stroke-linejoin:miter;stroke-opacity:1"
     x="489.03201"
     y="965.26208"
     id="text4150-2-1-7-1-7-7-59-3-3-9-3"><tspan
       id="tspan4152-6-5-7-5-7-3-7-8-1-6-3"
       x="489.03201"
       y="965.26208">b0v5power</tspan></text>
  <path
     inkscape:connector-curvature="0"
     style="fill:none;fill-rule:evenodd;stroke:#000000;stroke-width:2.5;stroke-linecap:butt;stroke-linejoin:miter;stroke-miterlimit:4;stroke-dasharray:none;stroke-opacity:1;marker-start:url(#marker41426);marker-end:url(#marker41838)"
     d="M 781.76871,620.84354 718.05359,763.34067"
     id="path41418" />
  <path
     inkscape:connector-curvature="0"
     style="fill:none;fill-rule:evenodd;stroke:#000000;stroke-width:2.5;stroke-linecap:butt;stroke-linejoin:miter;stroke-miterlimit:4;stroke-dasharray:none;stroke-opacity:1;marker-start:url(#marker44286);marker-end:url(#marker44710)"
     d="m 200.10641,602.74621 152.58113,0"
     id="path44278" />
  <path
     inkscape:connector-curvature="0"
     style="fill:none;fill-rule:evenodd;stroke:#000000;stroke-width:2.5;stroke-linecap:butt;stroke-linejoin:miter;stroke-miterlimit:4;stroke-dasharray:none;stroke-opacity:1;marker-start:url(#marker44286-3);marker-end:url(#marker44710-6)"
     d="m 200.60668,515.19965 154.58219,0"
     id="path44278-4" />
  <path
     inkscape:connector-curvature="0"
     style="fill:none;fill-rule:evenodd;stroke:#000000;stroke-width:2.5;stroke-linecap:butt;stroke-linejoin:miter;stroke-miterlimit:4;stroke-dasharray:none;stroke-opacity:1;marker-start:url(#marker44286-3-8);marker-end:url(#marker44710-6-8)"
     d="m 204.10854,415.14646 150.07979,0"
     id="path44278-4-7" />
  <path
     inkscape:connector-curvature="0"
     style="fill:none;fill-rule:evenodd;stroke:#000000;stroke-width:2.5;stroke-linecap:butt;stroke-linejoin:miter;stroke-miterlimit:4;stroke-dasharray:none;stroke-opacity:1;marker-start:url(#marker44286-3-8-7);marker-end:url(#marker44710-6-8-4)"
     d="m 202.10748,326.09911 146.57793,0"
     id="path44278-4-7-0" />
  <text
     sodipodi:linespacing="125%"
     xml:space="preserve"
     style="font-style:normal;font-variant:normal;font-weight:normal;font-stretch:normal;font-size:27.29540825px;line-height:125%;font-family:Quicksand;-inkscape-font-specification:Quicksand;letter-spacing:0px;word-spacing:0px;fill:#000000;fill-opacity:1;stroke:none;stroke-width:1px;stroke-linecap:butt;stroke-linejoin:miter;stroke-opacity:1"
     x="467.29468"
     y="56.346165"
     id="text49307-3"><tspan
       id="tspan49309-0"
       x="467.29468"
       y="56.346165"
       style="font-style:normal;font-variant:normal;font-weight:normal;font-stretch:normal;font-family:Inconsolata;-inkscape-font-specification:Inconsolata">Box0 software infrastructure</tspan></text>
  <text
     sodipodi:linespacing="125%"
     xml:space="preserve"
     style="font-style:normal;font-variant:normal;font-weight:normal;font-stretch:normal;font-size:27.29540825px;line-height:125%;font-family:Quicksand;-inkscape-font-specification:Quicksand;letter-spacing:0px;word-spacing:0px;fill:#000000;fill-opacity:1;stroke:none;stroke-width:1px;stroke-linecap:butt;stroke-linejoin:miter;stroke-opacity:1"
     x="1240.2659"
     y="56.346165"
     id="text49307-3-9"><tspan
       id="tspan49309-0-2"
       x="1240.2659"
       y="56.346165"
       style="font-style:normal;font-variant:normal;font-weight:normal;font-stretch:normal;font-family:Inconsolata;-inkscape-font-specification:Inconsolata">Box0 hardware infrastructure</tspan></text>
  <path
     inkscape:connector-curvature="0"
     style="fill:none;fill-rule:evenodd;stroke:#6b6b6b;stroke-width:2.62552261;stroke-linecap:round;stroke-linejoin:miter;stroke-miterlimit:4;stroke-dasharray:2.62552258, 15.75313549;stroke-dashoffset:0;stroke-opacity:1"
     d="m 1153.9998,909.64843 0,112.86467"
     id="path4144-5" />
</svg>
